%!PS-Adobe-3.0 EPSF-3.0
%%Creator: cairo 1.15.10 (http://cairographics.org)
%%CreationDate: Wed Jun 24 11:51:00 2020
%%Pages: 1
%%DocumentData: Clean7Bit
%%LanguageLevel: 2
%%BoundingBox: 0 0 238 238
%%EndComments
%%BeginProlog
50 dict begin
/q { gsave } bind def
/Q { grestore } bind def
/cm { 6 array astore concat } bind def
/w { setlinewidth } bind def
/J { setlinecap } bind def
/j { setlinejoin } bind def
/M { setmiterlimit } bind def
/d { setdash } bind def
/m { moveto } bind def
/l { lineto } bind def
/c { curveto } bind def
/h { closepath } bind def
/re { exch dup neg 3 1 roll 5 3 roll moveto 0 rlineto
      0 exch rlineto 0 rlineto closepath } bind def
/S { stroke } bind def
/f { fill } bind def
/f* { eofill } bind def
/n { newpath } bind def
/W { clip } bind def
/W* { eoclip } bind def
/BT { } bind def
/ET { } bind def
/BDC { mark 3 1 roll /BDC pdfmark } bind def
/EMC { mark /EMC pdfmark } bind def
/cairo_store_point { /cairo_point_y exch def /cairo_point_x exch def } def
/Tj { show currentpoint cairo_store_point } bind def
/TJ {
  {
    dup
    type /stringtype eq
    { show } { -0.001 mul 0 cairo_font_matrix dtransform rmoveto } ifelse
  } forall
  currentpoint cairo_store_point
} bind def
/cairo_selectfont { cairo_font_matrix aload pop pop pop 0 0 6 array astore
    cairo_font exch selectfont cairo_point_x cairo_point_y moveto } bind def
/Tf { pop /cairo_font exch def /cairo_font_matrix where
      { pop cairo_selectfont } if } bind def
/Td { matrix translate cairo_font_matrix matrix concatmatrix dup
      /cairo_font_matrix exch def dup 4 get exch 5 get cairo_store_point
      /cairo_font where { pop cairo_selectfont } if } bind def
/Tm { 2 copy 8 2 roll 6 array astore /cairo_font_matrix exch def
      cairo_store_point /cairo_font where { pop cairo_selectfont } if } bind def
/g { setgray } bind def
/rg { setrgbcolor } bind def
/d1 { setcachedevice } bind def
/cairo_data_source {
  CairoDataIndex CairoData length lt
    { CairoData CairoDataIndex get /CairoDataIndex CairoDataIndex 1 add def }
    { () } ifelse
} def
/cairo_flush_ascii85_file { cairo_ascii85_file status { cairo_ascii85_file flushfile } if } def
/cairo_image { image cairo_flush_ascii85_file } def
/cairo_imagemask { imagemask cairo_flush_ascii85_file } def
%%EndProlog
%%BeginSetup
%%EndSetup
%%Page: 1 1
%%BeginPageSetup
%%PageBoundingBox: 0 0 238 238
%%EndPageSetup
q 42 28 182 182 rectclip
1 0 0 -1 0 238 cm q
0 g
0.25 w
0 J
0 j
[] 0.0 d
3.8 M q 1 0 0 1 0 0 cm
42.949 208.699 m 46.648 208.699 l S Q
q 1 0 0 1 0 0 cm
223.148 208.699 m 219.449 208.699 l S Q
q 1 0 0 1 0 0 cm
42.949 190.699 m 46.648 190.699 l S Q
q 1 0 0 1 0 0 cm
223.148 190.699 m 219.449 190.699 l S Q
q 1 0 0 1 0 0 cm
42.949 172.648 m 46.648 172.648 l S Q
q 1 0 0 1 0 0 cm
223.148 172.648 m 219.449 172.648 l S Q
q 1 0 0 1 0 0 cm
42.949 154.648 m 46.648 154.648 l S Q
q 1 0 0 1 0 0 cm
223.148 154.648 m 219.449 154.648 l S Q
q 1 0 0 1 0 0 cm
42.949 136.602 m 46.648 136.602 l S Q
q 1 0 0 1 0 0 cm
223.148 136.602 m 219.449 136.602 l S Q
q 1 0 0 1 0 0 cm
42.949 118.602 m 46.648 118.602 l S Q
q 1 0 0 1 0 0 cm
223.148 118.602 m 219.449 118.602 l S Q
q 1 0 0 1 0 0 cm
42.949 100.602 m 46.648 100.602 l S Q
q 1 0 0 1 0 0 cm
223.148 100.602 m 219.449 100.602 l S Q
q 1 0 0 1 0 0 cm
42.949 82.551 m 46.648 82.551 l S Q
q 1 0 0 1 0 0 cm
223.148 82.551 m 219.449 82.551 l S Q
q 1 0 0 1 0 0 cm
42.949 64.551 m 46.648 64.551 l S Q
q 1 0 0 1 0 0 cm
223.148 64.551 m 219.449 64.551 l S Q
q 1 0 0 1 0 0 cm
42.949 46.5 m 46.648 46.5 l S Q
q 1 0 0 1 0 0 cm
223.148 46.5 m 219.449 46.5 l S Q
q 1 0 0 1 0 0 cm
42.949 28.5 m 46.648 28.5 l S Q
q 1 0 0 1 0 0 cm
223.148 28.5 m 219.449 28.5 l S Q
q 1 0 0 1 0 0 cm
42.949 208.699 m 42.949 205 l S Q
q 1 0 0 1 0 0 cm
42.949 28.5 m 42.949 32.199 l S Q
q 1 0 0 1 0 0 cm
60.949 208.699 m 60.949 205 l S Q
q 1 0 0 1 0 0 cm
60.949 28.5 m 60.949 32.199 l S Q
q 1 0 0 1 0 0 cm
79 208.699 m 79 205 l S Q
q 1 0 0 1 0 0 cm
79 28.5 m 79 32.199 l S Q
q 1 0 0 1 0 0 cm
97 208.699 m 97 205 l S Q
q 1 0 0 1 0 0 cm
97 28.5 m 97 32.199 l S Q
q 1 0 0 1 0 0 cm
115.051 208.699 m 115.051 205 l S Q
q 1 0 0 1 0 0 cm
115.051 28.5 m 115.051 32.199 l S Q
q 1 0 0 1 0 0 cm
133.051 208.699 m 133.051 205 l S Q
q 1 0 0 1 0 0 cm
133.051 28.5 m 133.051 32.199 l S Q
q 1 0 0 1 0 0 cm
151.051 208.699 m 151.051 205 l S Q
q 1 0 0 1 0 0 cm
151.051 28.5 m 151.051 32.199 l S Q
q 1 0 0 1 0 0 cm
169.102 208.699 m 169.102 205 l S Q
q 1 0 0 1 0 0 cm
169.102 28.5 m 169.102 32.199 l S Q
q 1 0 0 1 0 0 cm
187.102 208.699 m 187.102 205 l S Q
q 1 0 0 1 0 0 cm
187.102 28.5 m 187.102 32.199 l S Q
q 1 0 0 1 0 0 cm
205.148 208.699 m 205.148 205 l S Q
q 1 0 0 1 0 0 cm
205.148 28.5 m 205.148 32.199 l S Q
q 1 0 0 1 0 0 cm
223.148 208.699 m 223.148 205 l S Q
q 1 0 0 1 0 0 cm
223.148 28.5 m 223.148 32.199 l S Q
q 1 0 0 1 0 0 cm
42.949 28.5 180.199 180.199 re S Q
0.580392 0 0.827451 rg
q 1 0 0 1 0 0 cm
71.398 172.852 m 73.102 170.602 l 75.648 169.5 l 78.449 169.699 l 80.801
 171.199 l 82.148 173.648 l 82.199 176.398 l 80.898 178.898 l 78.648 180.5
 l 75.898 180.852 l 73.25 179.898 l 71.398 177.852 l 70.648 175.148 l 71.25
 172.449 l 73.051 170.301 l 75.602 169.199 l 78.398 169.352 l 80.801 170.75
 l 82.301 173.102 l 82.602 175.898 l 81.648 178.5 l 79.602 180.398 l 76.898
 181.25 l 74.148 180.75 l 71.898 179.148 l 70.551 176.699 l 70.398 173.898
 l 71.5 171.352 l 73.602 169.5 l 76.301 168.75 l 79.051 169.199 l 81.352
 170.801 l 82.75 173.199 l 82.949 176 l 82 178.602 l 80.051 180.602 l 77.449
 181.551 l 74.648 181.352 l 72.199 180.051 l 70.5 177.801 l 69.898 175.051
 l 70.449 172.352 l 72.102 170.051 l 74.5 168.648 l 77.301 168.301 l 79.949
 169.148 l 82.051 170.949 l 83.301 173.5 l 83.398 176.25 l 82.398 178.898
 l 80.449 180.898 l 77.898 182 l 75.102 182 l 72.5 180.898 l 70.551 178.898
 l 69.5 176.301 l 69.551 173.5 l 70.648 170.949 l 72.648 168.949 l 75.199
 167.898 l 78 167.852 l 80.602 168.898 l 82.648 170.801 l 83.852 173.352
 l 84 176.148 l 83.148 178.801 l 81.352 180.949 l 78.898 182.352 l 76.148
 182.699 l 73.398 182.102 l 71.102 180.551 l 69.449 178.25 l 68.75 175.551
 l 69.051 172.75 l 70.301 170.25 l 72.352 168.352 l 74.898 167.25 l 77.699
 167.102 l 80.398 167.949 l 82.648 169.602 l 84.148 171.949 l 84.801 174.699
 l 84.5 177.5 l 83.301 180 l 81.301 182 l 78.801 183.199 l 76 183.5 l 73.25
 182.898 l 70.852 181.449 l 69.051 179.301 l 68.051 176.699 l 67.949 173.898
 l 68.699 171.199 l 70.301 168.898 l 72.5 167.148 l 75.148 166.25 l 77.949
 166.148 l 80.648 166.949 l 82.949 168.551 l 84.699 170.75 l 85.648 173.398
 l 85.801 176.199 l 85.102 178.898 l 83.648 181.301 l 81.551 183.148 l 78.949
 184.301 l 76.199 184.648 l 73.398 184.199 l 70.898 182.949 l 68.852 181.051
 l 67.398 178.648 l 66.699 175.949 l 66.801 173.148 l 67.648 170.449 l 69.199
 168.148 l 71.352 166.301 l 73.898 165.148 l 76.648 164.699 l 79.449 165.051
 l 82.051 166.102 l 84.301 167.801 l 86 170.051 l 87.051 172.648 l 87.398
 175.398 l 87 178.199 l 85.949 180.801 l 84.25 183.051 l 82.051 184.801 
l 79.5 185.898 l 76.699 186.398 l 73.898 186.148 l 71.25 185.25 l 68.898
 183.75 l 66.949 181.699 l 65.551 179.25 l 64.801 176.551 l 64.699 173.75
 l 65.199 171 l 66.352 168.449 l 68.102 166.199 l 70.25 164.398 l 72.75 
163.148 l 75.5 162.5 l 78.301 162.5 l 81.051 163.051 l 83.602 164.199 l 
85.852 165.898 l 87.699 168 l 89.051 170.5 l 89.852 173.148 l 90.102 175.949
 l 89.75 178.75 l 88.801 181.398 l 87.398 183.852 l 85.5 185.898 l 83.25
 187.602 l 80.699 188.801 l 77.949 189.449 l 75.148 189.602 l 72.398 189.199
 l 69.699 188.301 l 67.301 186.898 l 65.148 185.102 l 63.352 182.898 l 62
 180.449 l 61.102 177.75 l 60.699 175 l 60.801 172.199 l 61.352 169.449 
l 62.398 166.801 l 63.852 164.398 l 65.699 162.301 l 67.898 160.5 l 70.301
 159.102 l 72.949 158.102 l 75.699 157.5 l 78.5 157.398 l 81.301 157.699
 l 84 158.449 l 86.602 159.602 l 88.949 161.102 l 91.102 162.949 l 92.898
 165.102 l 94.398 167.449 l 95.551 170 l 96.352 172.699 l 96.75 175.5 l 
96.75 178.301 l 96.398 181.102 l 95.648 183.852 l 94.551 186.449 l 93.148
 188.852 l 91.449 191.102 l 89.5 193.102 l 87.301 194.852 l 84.898 196.352
 l 82.352 197.5 l 79.699 198.398 l 76.898 198.949 l 74.102 199.199 l 71.301
 199.148 l 68.5 198.75 l 65.801 198.102 l 63.148 197.148 l 60.602 195.898
 l 58.199 194.449 l 55.949 192.75 l 53.898 190.801 l 52.051 188.699 l 50.352
 186.449 l 48.898 184.051 l 47.699 181.5 l 46.699 178.852 l 45.949 176.148
 l 45.398 173.398 l 45.051 170.602 l 45 167.801 l 45.102 165 l 45.449 162.199
 l 46 159.398 l 46.75 156.699 l 47.699 154.051 l 48.801 151.449 l 50.102
 148.949 l 51.551 146.551 l 53.148 144.25 l 54.898 142 l 56.75 139.898 l
 58.699 137.898 l 60.801 136 l 62.949 134.199 l 65.25 132.551 l 67.602 131
 l 70 129.551 l 72.5 128.199 l 75 127 l 77.602 125.852 l 80.199 124.852 
l 82.852 123.898 l 85.551 123.102 l 88.301 122.352 l 91 121.699 l 93.801
 121.102 l 96.551 120.602 l 99.352 120.199 l 102.102 119.801 l 104.898 119.5
 l 107.75 119.25 l 110.551 119.051 l 113.352 118.898 l 116.148 118.801 l
 118.949 118.699 l 121.801 118.648 l 124.602 118.602 l 141.5 118.602 l 144.301
 118.551 l 147.148 118.5 l 149.949 118.398 l 152.75 118.301 l 155.551 118.148
 l 158.352 117.949 l 161.199 117.699 l 164 117.398 l 166.75 117 l 169.551
 116.602 l 172.301 116.102 l 175.102 115.5 l 177.801 114.852 l 180.551 114.102
 l 183.25 113.301 l 185.898 112.352 l 188.5 111.352 l 191.102 110.199 l 
193.602 109 l 196.102 107.648 l 198.5 106.199 l 200.852 104.648 l 203.148
 103 l 205.301 101.199 l 207.398 99.301 l 209.352 97.301 l 211.199 95.199
 l 212.949 92.949 l 214.551 90.648 l 216 88.25 l 217.301 85.75 l 218.398
 83.148 l 219.352 80.5 l 220.102 77.801 l 220.648 75 l 221 72.199 l 221.102
 69.398 l 221.051 66.602 l 220.699 63.801 l 220.148 61.051 l 219.398 58.352
 l 218.398 55.699 l 217.199 53.148 l 215.75 50.75 l 214.051 48.5 l 212.199
 46.398 l 210.148 44.449 l 207.898 42.75 l 205.5 41.301 l 202.949 40.051
 l 200.301 39.102 l 197.602 38.449 l 194.801 38.051 l 192 38 l 189.199 38.25
 l 186.398 38.801 l 183.75 39.699 l 181.199 40.852 l 178.801 42.352 l 176.602
 44.102 l 174.648 46.102 l 172.949 48.352 l 171.551 50.75 l 170.449 53.352
 l 169.699 56.102 l 169.352 58.898 l 169.352 61.699 l 169.75 64.5 l 170.551
 67.199 l 171.699 69.75 l 173.199 72.102 l 175 74.25 l 177.148 76.102 l 
179.5 77.602 l 182.102 78.75 l 184.801 79.5 l 187.602 79.801 l 190.398 79.699
 l 193.148 79.102 l 195.801 78.102 l 198.199 76.699 l 200.398 74.898 l 202.25
 72.801 l 203.699 70.398 l 204.75 67.75 l 205.301 65 l 205.398 62.199 l 
205 59.449 l 204.102 56.75 l 202.75 54.301 l 200.949 52.102 l 198.801 50.301
 l 196.398 48.898 l 193.699 48 l 190.949 47.602 l 188.148 47.75 l 185.398
 48.398 l 182.852 49.602 l 180.602 51.301 l 178.699 53.352 l 177.301 55.801
 l 176.352 58.449 l 176 61.25 l 176.25 64.051 l 177.051 66.699 l 178.398
 69.199 l 180.25 71.301 l 182.5 73 l 185.051 74.148 l 187.801 74.699 l 190.602
 74.699 l 193.352 74.051 l 195.852 72.801 l 198 71 l 199.75 68.75 l 200.898
 66.199 l 201.398 63.449 l 201.301 60.648 l 200.551 57.949 l 199.148 55.5
 l 197.199 53.449 l 194.852 51.949 l 192.199 51.051 l 189.398 50.801 l 186.602
 51.301 l 184.051 52.398 l 181.852 54.148 l 180.148 56.398 l 179.102 59 
l 178.699 61.801 l 179.051 64.551 l 180.102 67.148 l 181.801 69.398 l 184.051
 71.102 l 186.648 72.148 l 189.449 72.5 l 192.199 72.051 l 194.75 70.898
 l 196.898 69.051 l 198.449 66.75 l 199.301 64.051 l 199.398 61.25 l 198.699
 58.551 l 197.25 56.148 l 195.199 54.25 l 192.699 53 l 189.898 52.551 l 
187.148 52.898 l 184.551 54.051 l 182.449 55.898 l 181 58.301 l 180.301 
61 l 180.449 63.801 l 181.398 66.449 l 183.148 68.648 l 185.449 70.25 l 
188.148 71.051 l 190.949 70.949 l 193.602 70.051 l 195.801 68.301 l 197.398
 66 l 198.148 63.301 l 198.051 60.5 l 197.051 57.898 l 195.25 55.75 l 192.852
 54.301 l 190.102 53.699 l 187.301 54 l 184.801 55.199 l 182.801 57.199 
l 181.602 59.699 l 181.301 62.5 l 181.949 65.25 l 183.449 67.602 l 185.699
 69.25 l 188.398 70.102 l 191.199 69.949 l 193.75 68.852 l 195.801 66.949
 l 197.051 64.449 l 197.352 61.648 l 196.648 58.949 l 195 56.648 l 192.699
 55.102 l 189.949 54.5 l 187.199 54.852 l 184.75 56.25 l 182.949 58.398 
l 182.102 61.051 l 182.25 63.852 l 183.449 66.398 l 185.5 68.301 l 188.102
 69.352 l 190.898 69.301 l 193.449 68.25 l 195.449 66.25 l 196.551 63.699
 l 196.602 60.898 l 195.551 58.301 l 193.602 56.301 l 191 55.199 l 188.199
 55.199 l 185.648 56.301 l 183.699 58.301 l 182.699 60.949 l 182.801 63.699
 l 184.051 66.25 l 186.148 68.051 l 188.801 68.898 l 191.602 68.551 l 194
 67.148 l 195.648 64.852 l 196.199 62.148 l 195.602 59.398 l 193.898 57.148
 l 191.449 55.852 l 188.648 55.648 l 186.051 56.602 l 184.102 58.602 l 183.148
 61.199 l 183.352 64 l 184.75 66.398 l 187.051 68 l 189.801 68.449 l 192.5
 67.699 l 194.602 65.852 l 195.699 63.301 l 195.551 60.5 l 194.199 58.051
 l 191.949 56.449 l 189.199 55.949 l 186.5 56.801 l 184.449 58.699 l 183.5
 61.301 l 183.801 64.102 l 185.301 66.449 l 187.699 67.852 l 190.5 68 l 
193.051 66.898 l 194.852 64.75 l 195.449 62.051 l 194.699 59.352 l 192.852
 57.301 l 190.199 56.352 l 187.449 56.699 l 185.199 58.301 l 183.898 60.801
 l 183.949 63.551 l 185.301 66 l 187.648 67.5 l 190.449 67.699 l 193 66.602
 l 194.699 64.352 l S Q
0 g
q 1 0 0 1 0 0 cm
42.949 28.5 180.199 180.199 re S Q
Q Q
showpage
%%Trailer
end
%%EOF
