%!PS-Adobe-3.0 EPSF-3.0
%%Creator: cairo 1.15.10 (http://cairographics.org)
%%CreationDate: Wed Jun 24 11:50:58 2020
%%Pages: 1
%%DocumentData: Clean7Bit
%%LanguageLevel: 2
%%BoundingBox: 0 0 238 170
%%EndComments
%%BeginProlog
50 dict begin
/q { gsave } bind def
/Q { grestore } bind def
/cm { 6 array astore concat } bind def
/w { setlinewidth } bind def
/J { setlinecap } bind def
/j { setlinejoin } bind def
/M { setmiterlimit } bind def
/d { setdash } bind def
/m { moveto } bind def
/l { lineto } bind def
/c { curveto } bind def
/h { closepath } bind def
/re { exch dup neg 3 1 roll 5 3 roll moveto 0 rlineto
      0 exch rlineto 0 rlineto closepath } bind def
/S { stroke } bind def
/f { fill } bind def
/f* { eofill } bind def
/n { newpath } bind def
/W { clip } bind def
/W* { eoclip } bind def
/BT { } bind def
/ET { } bind def
/BDC { mark 3 1 roll /BDC pdfmark } bind def
/EMC { mark /EMC pdfmark } bind def
/cairo_store_point { /cairo_point_y exch def /cairo_point_x exch def } def
/Tj { show currentpoint cairo_store_point } bind def
/TJ {
  {
    dup
    type /stringtype eq
    { show } { -0.001 mul 0 cairo_font_matrix dtransform rmoveto } ifelse
  } forall
  currentpoint cairo_store_point
} bind def
/cairo_selectfont { cairo_font_matrix aload pop pop pop 0 0 6 array astore
    cairo_font exch selectfont cairo_point_x cairo_point_y moveto } bind def
/Tf { pop /cairo_font exch def /cairo_font_matrix where
      { pop cairo_selectfont } if } bind def
/Td { matrix translate cairo_font_matrix matrix concatmatrix dup
      /cairo_font_matrix exch def dup 4 get exch 5 get cairo_store_point
      /cairo_font where { pop cairo_selectfont } if } bind def
/Tm { 2 copy 8 2 roll 6 array astore /cairo_font_matrix exch def
      cairo_store_point /cairo_font where { pop cairo_selectfont } if } bind def
/g { setgray } bind def
/rg { setrgbcolor } bind def
/d1 { setcachedevice } bind def
/cairo_data_source {
  CairoDataIndex CairoData length lt
    { CairoData CairoDataIndex get /CairoDataIndex CairoDataIndex 1 add def }
    { () } ifelse
} def
/cairo_flush_ascii85_file { cairo_ascii85_file status { cairo_ascii85_file flushfile } if } def
/cairo_image { image cairo_flush_ascii85_file } def
/cairo_imagemask { imagemask cairo_flush_ascii85_file } def
%%EndProlog
%%BeginSetup
%%EndSetup
%%Page: 1 1
%%BeginPageSetup
%%PageBoundingBox: 0 0 238 170
%%EndPageSetup
q 37 28 187 115 rectclip
1 0 0 -1 0 170 cm q
0 g
0.25 w
0 J
0 j
[] 0.0 d
3.8 M q 1 0 0 1 0 0 cm
37.852 140.75 m 41.551 140.75 l S Q
q 1 0 0 1 0 0 cm
223.148 140.75 m 219.449 140.75 l S Q
q 1 0 0 1 0 0 cm
37.852 129.5 m 41.551 129.5 l S Q
q 1 0 0 1 0 0 cm
223.148 129.5 m 219.449 129.5 l S Q
q 1 0 0 1 0 0 cm
37.852 118.301 m 41.551 118.301 l S Q
q 1 0 0 1 0 0 cm
223.148 118.301 m 219.449 118.301 l S Q
q 1 0 0 1 0 0 cm
37.852 107.051 m 41.551 107.051 l S Q
q 1 0 0 1 0 0 cm
223.148 107.051 m 219.449 107.051 l S Q
q 1 0 0 1 0 0 cm
37.852 95.852 m 41.551 95.852 l S Q
q 1 0 0 1 0 0 cm
223.148 95.852 m 219.449 95.852 l S Q
q 1 0 0 1 0 0 cm
37.852 84.602 m 41.551 84.602 l S Q
q 1 0 0 1 0 0 cm
223.148 84.602 m 219.449 84.602 l S Q
q 1 0 0 1 0 0 cm
37.852 73.352 m 41.551 73.352 l S Q
q 1 0 0 1 0 0 cm
223.148 73.352 m 219.449 73.352 l S Q
q 1 0 0 1 0 0 cm
37.852 62.148 m 41.551 62.148 l S Q
q 1 0 0 1 0 0 cm
223.148 62.148 m 219.449 62.148 l S Q
q 1 0 0 1 0 0 cm
37.852 50.898 m 41.551 50.898 l S Q
q 1 0 0 1 0 0 cm
223.148 50.898 m 219.449 50.898 l S Q
q 1 0 0 1 0 0 cm
37.852 39.699 m 41.551 39.699 l S Q
q 1 0 0 1 0 0 cm
223.148 39.699 m 219.449 39.699 l S Q
q 1 0 0 1 0 0 cm
37.852 28.449 m 41.551 28.449 l S Q
q 1 0 0 1 0 0 cm
223.148 28.449 m 219.449 28.449 l S Q
q 1 0 0 1 0 0 cm
37.852 140.75 m 37.852 137.051 l S Q
q 1 0 0 1 0 0 cm
37.852 28.449 m 37.852 32.148 l S Q
q 1 0 0 1 0 0 cm
68.75 140.75 m 68.75 137.051 l S Q
q 1 0 0 1 0 0 cm
68.75 28.449 m 68.75 32.148 l S Q
q 1 0 0 1 0 0 cm
99.602 140.75 m 99.602 137.051 l S Q
q 1 0 0 1 0 0 cm
99.602 28.449 m 99.602 32.148 l S Q
q 1 0 0 1 0 0 cm
130.5 140.75 m 130.5 137.051 l S Q
q 1 0 0 1 0 0 cm
130.5 28.449 m 130.5 32.148 l S Q
q 1 0 0 1 0 0 cm
161.398 140.75 m 161.398 137.051 l S Q
q 1 0 0 1 0 0 cm
161.398 28.449 m 161.398 32.148 l S Q
q 1 0 0 1 0 0 cm
192.25 140.75 m 192.25 137.051 l S Q
q 1 0 0 1 0 0 cm
192.25 28.449 m 192.25 32.148 l S Q
q 1 0 0 1 0 0 cm
223.148 140.75 m 223.148 137.051 l S Q
q 1 0 0 1 0 0 cm
223.148 28.449 m 223.148 32.148 l S Q
q 1 0 0 1 0 0 cm
37.852 28.449 185.297 112.301 re S Q
0.580392 0 0.827451 rg
q 1 0 0 1 0 0 cm
188.852 36.801 m 212.949 36.801 l S Q
q 1 0 0 1 0 0 cm
37.852 140.75 m 39.801 140.75 l 40.75 140.699 l 41.699 140.699 l 42.699
 140.602 l 43.648 140.5 l 44.602 140.352 l 45.551 140.148 l 46.551 139.898
 l 47.5 139.602 l 48.449 139.25 l 49.449 138.801 l 50.398 138.25 l 51.352
 137.602 l 52.352 136.898 l 53.301 136.102 l 54.25 135.148 l 55.199 134.148
 l 56.199 133 l 57.148 131.699 l 58.102 130.301 l 59.102 128.801 l 60.051
 127.102 l 61 125.301 l 62 123.352 l 62.949 121.301 l 63.898 119.051 l 64.852
 116.699 l 65.852 114.199 l 66.801 111.551 l 67.75 108.801 l 68.75 105.898
 l 69.699 102.898 l 70.648 99.801 l 71.648 96.551 l 72.602 93.25 l 73.551
 89.852 l 74.5 86.449 l 75.5 82.949 l 77.398 75.949 l 78.398 72.449 l 79.352
 69 l 80.301 65.648 l 81.301 62.352 l 82.25 59.199 l 83.199 56.199 l 84.199
 53.352 l 85.148 50.75 l 86.102 48.352 l 87.051 46.25 l 88.051 44.398 l 
89 42.852 l 89.949 41.648 l 90.949 40.852 l 91.898 40.352 l 92.852 40.301
 l 93.852 40.602 l 94.801 41.301 l 95.75 42.398 l 96.699 43.852 l 97.699
 45.699 l 98.648 47.898 l 99.602 50.398 l 100.602 53.148 l 101.551 56.199
 l 102.5 59.449 l 103.5 62.852 l 104.449 66.301 l 105.398 69.801 l 106.352
 73.301 l 107.352 76.648 l 108.301 79.852 l 109.25 82.801 l 110.25 85.5 
l 111.199 87.801 l 112.148 89.648 l 113.148 91.102 l 114.102 92 l 115.051
 92.398 l 116 92.25 l 117 91.551 l 117.949 90.301 l 118.898 88.551 l 119.898
 86.301 l 120.852 83.648 l 121.801 80.648 l 122.801 77.398 l 123.75 73.949
 l 124.699 70.449 l 125.648 67 l 126.648 63.648 l 127.602 60.602 l 128.551
 57.898 l 129.551 55.602 l 130.5 53.898 l 131.449 52.75 l 132.449 52.25 
l 133.398 52.449 l 134.352 53.25 l 135.352 54.75 l 136.301 56.852 l 137.25
 59.449 l 138.199 62.449 l 139.199 65.75 l 140.148 69.25 l 141.102 72.75
 l 142.102 76.102 l 143.051 79.148 l 144 81.801 l 145 83.898 l 145.949 85.352
 l 146.898 86.051 l 147.852 86 l 148.852 85.199 l 149.801 83.648 l 150.75
 81.398 l 151.75 78.648 l 152.699 75.449 l 153.648 72 l 154.648 68.5 l 155.602
 65.148 l 156.551 62.102 l 157.5 59.551 l 158.5 57.648 l 159.449 56.551 
l 160.398 56.25 l 161.398 56.852 l 162.352 58.25 l 163.301 60.449 l 164.301
 63.25 l 165.25 66.449 l 166.199 69.949 l 167.148 73.398 l 168.148 76.648
 l 169.102 79.398 l 170.051 81.551 l 171.051 82.852 l 172 83.25 l 172.949
 82.75 l 173.949 81.301 l 174.898 79 l 175.852 76.102 l 176.852 72.801 l
 177.801 69.301 l 178.75 65.898 l 179.699 62.898 l 180.699 60.551 l 181.648
 59 l 182.602 58.398 l 183.602 58.852 l 184.551 60.301 l 185.5 62.602 l 
186.5 65.602 l 187.449 68.949 l 188.398 72.449 l 189.352 75.75 l 190.352
 78.5 l 191.301 80.449 l 192.25 81.449 l 193.25 81.352 l 194.199 80.199 
l 195.148 78.102 l 196.148 75.199 l 197.102 71.852 l 198.051 68.352 l 199
 65.102 l 200 62.398 l 200.949 60.602 l 201.898 59.852 l 202.898 60.25 l
 203.852 61.75 l 204.801 64.199 l 205.801 67.352 l 206.75 70.852 l 207.699
 74.25 l 208.648 77.148 l 209.648 79.25 l 210.602 80.301 l 211.551 80.102
 l 212.551 78.75 l 213.5 76.352 l 214.449 73.25 l 215.449 69.75 l 216.398
 66.398 l 217.352 63.551 l 218.301 61.602 l 219.301 60.852 l 220.25 61.301
 l 221.199 63.051 l 222.199 65.699 l 223.148 69.051 l S Q
0 0.619608 0.45098 rg
q 1 0 0 1 0 0 cm
188.852 46.102 m 212.949 46.102 l S Q
q 1 0 0 1 0 0 cm
37.852 140.75 m 38.801 137.25 l 39.801 133.75 l 40.75 130.199 l 41.699 
126.699 l 42.699 123.199 l 43.648 119.699 l 44.602 116.199 l 45.551 112.699
 l 46.551 109.199 l 48.449 102.199 l 49.449 98.699 l 50.398 95.25 l 51.352
 91.801 l 52.352 88.352 l 53.301 84.949 l 54.25 81.551 l 55.199 78.199 l
 56.199 74.898 l 57.148 71.648 l 58.102 68.398 l 59.102 65.25 l 60.051 62.148
 l 61 59.148 l 62 56.25 l 62.949 53.398 l 63.898 50.699 l 64.852 48.102 
l 65.852 45.648 l 66.801 43.301 l 67.75 41.148 l 68.75 39.148 l 69.699 37.352
 l 70.648 35.75 l 71.648 34.398 l 72.602 33.199 l 73.551 32.25 l 74.5 31.602
 l 75.5 31.148 l 76.449 31 l 77.398 31.102 l 78.398 31.5 l 79.352 32.148
 l 80.301 33.102 l 81.301 34.352 l 82.25 35.898 l 83.199 37.699 l 84.199
 39.75 l 85.148 42.102 l 86.102 44.648 l 87.051 47.449 l 88.051 50.449 l
 89 53.602 l 89.949 56.898 l 90.949 60.301 l 91.898 63.801 l 92.852 67.301
 l 93.852 70.801 l 94.801 74.25 l 95.75 77.551 l 96.699 80.75 l 97.699 83.75
 l 98.648 86.449 l 99.602 88.898 l 100.602 91.051 l 101.551 92.801 l 102.5
 94.148 l 103.5 95.051 l 104.449 95.5 l 105.398 95.5 l 106.352 95 l 107.352
 94 l 108.301 92.602 l 109.25 90.699 l 110.25 88.449 l 111.199 85.801 l 
112.148 82.852 l 113.148 79.648 l 114.102 76.25 l 116 69.25 l 117 65.852
 l 117.949 62.551 l 118.898 59.551 l 119.898 56.801 l 120.852 54.551 l 121.801
 52.699 l 122.801 51.398 l 123.75 50.699 l 124.699 50.602 l 125.648 51.102
 l 126.648 52.199 l 127.602 53.898 l 128.551 56.102 l 129.551 58.75 l 130.5
 61.801 l 131.449 65.148 l 132.449 68.602 l 133.398 72.102 l 134.352 75.5
 l 135.352 78.648 l 136.301 81.5 l 137.25 83.852 l 138.199 85.602 l 139.199
 86.75 l 140.148 87.199 l 141.102 86.898 l 142.102 85.898 l 143.051 84.25
 l 144 81.949 l 145 79.148 l 145.949 75.949 l 146.898 72.5 l 147.852 69 
l 148.852 65.602 l 149.801 62.5 l 150.75 59.75 l 151.75 57.648 l 152.699
 56.199 l 153.648 55.551 l 154.648 55.699 l 155.602 56.648 l 156.551 58.398
 l 157.5 60.801 l 158.5 63.75 l 159.449 67.051 l 160.398 70.551 l 161.398
 74 l 162.352 77.199 l 163.301 79.949 l 164.301 82.051 l 165.25 83.352 l
 166.199 83.852 l 167.148 83.398 l 168.148 82.102 l 169.102 79.949 l 170.051
 77.199 l 171.051 73.949 l 172 70.449 l 172.949 67 l 173.949 63.852 l 174.898
 61.148 l 175.852 59.199 l 176.852 58.148 l 177.801 58.051 l 178.75 58.898
 l 179.699 60.699 l 180.699 63.301 l 181.648 66.449 l 182.602 69.898 l 183.602
 73.352 l 184.551 76.551 l 185.5 79.148 l 186.5 81 l 187.449 81.852 l 188.398
 81.699 l 189.352 80.449 l 190.352 78.301 l 191.301 75.398 l 192.25 72.051
 l 193.25 68.602 l 194.199 65.301 l 195.148 62.5 l 196.148 60.551 l 197.102
 59.602 l 198.051 59.75 l 199 61 l 200 63.25 l 200.949 66.25 l 201.898 69.648
 l 202.898 73.102 l 203.852 76.25 l 204.801 78.699 l 205.801 80.25 l 206.75
 80.602 l 207.699 79.801 l 208.648 77.898 l 209.648 75.102 l 210.602 71.801
 l 211.551 68.301 l 212.551 65.102 l 213.5 62.551 l 214.449 61 l 215.449
 60.648 l 216.398 61.5 l 217.352 63.551 l 218.301 66.449 l 219.301 69.852
 l 220.25 73.301 l 221.199 76.301 l 222.199 78.551 l 223.148 79.602 l S Q
0.337255 0.705882 0.913725 rg
q 1 0 0 1 0 0 cm
47.199 138.352 m 53.199 138.352 l S Q
q 1 0 0 1 0 0 cm
50.199 135.352 m 50.199 141.352 l S Q
q 1 0 0 1 0 0 cm
47.199 135.352 m 53.199 141.352 l S Q
q 1 0 0 1 0 0 cm
47.199 141.352 m 53.199 135.352 l S Q
q 1 0 0 1 0 0 cm
59.551 122.148 m 65.551 122.148 l S Q
q 1 0 0 1 0 0 cm
62.551 119.148 m 62.551 125.148 l S Q
q 1 0 0 1 0 0 cm
59.551 119.148 m 65.551 125.148 l S Q
q 1 0 0 1 0 0 cm
59.551 125.148 m 65.551 119.148 l S Q
q 1 0 0 1 0 0 cm
81.199 53.352 m 87.199 53.352 l S Q
q 1 0 0 1 0 0 cm
84.199 50.352 m 84.199 56.352 l S Q
q 1 0 0 1 0 0 cm
81.199 50.352 m 87.199 56.352 l S Q
q 1 0 0 1 0 0 cm
81.199 56.352 m 87.199 50.352 l S Q
q 1 0 0 1 0 0 cm
105.898 81.648 m 111.898 81.648 l S Q
q 1 0 0 1 0 0 cm
108.898 78.648 m 108.898 84.648 l S Q
q 1 0 0 1 0 0 cm
105.898 78.648 m 111.898 84.648 l S Q
q 1 0 0 1 0 0 cm
105.898 84.648 m 111.898 78.648 l S Q
q 1 0 0 1 0 0 cm
149.102 77.398 m 155.102 77.398 l S Q
q 1 0 0 1 0 0 cm
152.102 74.398 m 152.102 80.398 l S Q
q 1 0 0 1 0 0 cm
149.102 74.398 m 155.102 80.398 l S Q
q 1 0 0 1 0 0 cm
149.102 80.398 m 155.102 74.398 l S Q
q 1 0 0 1 0 0 cm
173.852 72.801 m 179.852 72.801 l S Q
q 1 0 0 1 0 0 cm
176.852 69.801 m 176.852 75.801 l S Q
q 1 0 0 1 0 0 cm
173.852 69.801 m 179.852 75.801 l S Q
q 1 0 0 1 0 0 cm
173.852 75.801 m 179.852 69.801 l S Q
q 1 0 0 1 0 0 cm
195.449 67 m 201.449 67 l S Q
q 1 0 0 1 0 0 cm
198.449 64 m 198.449 70 l S Q
q 1 0 0 1 0 0 cm
195.449 64 m 201.449 70 l S Q
q 1 0 0 1 0 0 cm
195.449 70 m 201.449 64 l S Q
0.901961 0.623529 0 rg
q 1 0 0 1 0 0 cm
47.199 92.949 6 6 re S Q
q 1 0 0 1 0 0 cm
59.551 51.5 6 6 re S Q
q 1 0 0 1 0 0 cm
81.199 36.75 6 6 re S Q
q 1 0 0 1 0 0 cm
105.898 88.551 6 6 re S Q
q 1 0 0 1 0 0 cm
149.102 54 6 6 re S Q
q 1 0 0 1 0 0 cm
173.852 55.148 6 6 re S Q
q 1 0 0 1 0 0 cm
195.449 57.148 6 6 re S Q
0 g
q 1 0 0 1 0 0 cm
37.852 28.449 185.297 112.301 re S Q
Q Q
showpage
%%Trailer
end
%%EOF
