\relax 
\@writefile{lof}{\contentsline {figure}{\numberline {1}{\ignorespaces sin($x$) og cos($x$) med tabel data}}{1}}
\newlabel{fig:SinCos}{{1}{1}}
\@writefile{lof}{\contentsline {figure}{\numberline {2}{\ignorespaces De to Fresnel integraler med tabel punkter}}{1}}
\newlabel{fig:Fresnel}{{2}{1}}
\@writefile{lof}{\contentsline {figure}{\numberline {3}{\ignorespaces Eulerspiralen}}{2}}
\newlabel{fig:EulerSpiral}{{3}{2}}
