%!PS-Adobe-3.0 EPSF-3.0
%%Creator: cairo 1.15.10 (http://cairographics.org)
%%CreationDate: Wed Jun 24 11:50:57 2020
%%Pages: 1
%%DocumentData: Clean7Bit
%%LanguageLevel: 2
%%BoundingBox: 0 0 238 170
%%EndComments
%%BeginProlog
50 dict begin
/q { gsave } bind def
/Q { grestore } bind def
/cm { 6 array astore concat } bind def
/w { setlinewidth } bind def
/J { setlinecap } bind def
/j { setlinejoin } bind def
/M { setmiterlimit } bind def
/d { setdash } bind def
/m { moveto } bind def
/l { lineto } bind def
/c { curveto } bind def
/h { closepath } bind def
/re { exch dup neg 3 1 roll 5 3 roll moveto 0 rlineto
      0 exch rlineto 0 rlineto closepath } bind def
/S { stroke } bind def
/f { fill } bind def
/f* { eofill } bind def
/n { newpath } bind def
/W { clip } bind def
/W* { eoclip } bind def
/BT { } bind def
/ET { } bind def
/BDC { mark 3 1 roll /BDC pdfmark } bind def
/EMC { mark /EMC pdfmark } bind def
/cairo_store_point { /cairo_point_y exch def /cairo_point_x exch def } def
/Tj { show currentpoint cairo_store_point } bind def
/TJ {
  {
    dup
    type /stringtype eq
    { show } { -0.001 mul 0 cairo_font_matrix dtransform rmoveto } ifelse
  } forall
  currentpoint cairo_store_point
} bind def
/cairo_selectfont { cairo_font_matrix aload pop pop pop 0 0 6 array astore
    cairo_font exch selectfont cairo_point_x cairo_point_y moveto } bind def
/Tf { pop /cairo_font exch def /cairo_font_matrix where
      { pop cairo_selectfont } if } bind def
/Td { matrix translate cairo_font_matrix matrix concatmatrix dup
      /cairo_font_matrix exch def dup 4 get exch 5 get cairo_store_point
      /cairo_font where { pop cairo_selectfont } if } bind def
/Tm { 2 copy 8 2 roll 6 array astore /cairo_font_matrix exch def
      cairo_store_point /cairo_font where { pop cairo_selectfont } if } bind def
/g { setgray } bind def
/rg { setrgbcolor } bind def
/d1 { setcachedevice } bind def
/cairo_data_source {
  CairoDataIndex CairoData length lt
    { CairoData CairoDataIndex get /CairoDataIndex CairoDataIndex 1 add def }
    { () } ifelse
} def
/cairo_flush_ascii85_file { cairo_ascii85_file status { cairo_ascii85_file flushfile } if } def
/cairo_image { image cairo_flush_ascii85_file } def
/cairo_imagemask { imagemask cairo_flush_ascii85_file } def
%%EndProlog
%%BeginSetup
%%EndSetup
%%Page: 1 1
%%BeginPageSetup
%%PageBoundingBox: 0 0 238 170
%%EndPageSetup
q 39 28 185 115 rectclip
1 0 0 -1 0 170 cm q
0 g
0.25 w
0 J
0 j
[] 0.0 d
3.8 M q 1 0 0 1 0 0 cm
42.949 140.75 m 46.648 140.75 l S Q
q 1 0 0 1 0 0 cm
223.148 140.75 m 219.449 140.75 l S Q
q 1 0 0 1 0 0 cm
42.949 122.051 m 46.648 122.051 l S Q
q 1 0 0 1 0 0 cm
223.148 122.051 m 219.449 122.051 l S Q
q 1 0 0 1 0 0 cm
42.949 103.301 m 46.648 103.301 l S Q
q 1 0 0 1 0 0 cm
223.148 103.301 m 219.449 103.301 l S Q
q 1 0 0 1 0 0 cm
42.949 84.602 m 46.648 84.602 l S Q
q 1 0 0 1 0 0 cm
223.148 84.602 m 219.449 84.602 l S Q
q 1 0 0 1 0 0 cm
42.949 65.898 m 46.648 65.898 l S Q
q 1 0 0 1 0 0 cm
223.148 65.898 m 219.449 65.898 l S Q
q 1 0 0 1 0 0 cm
42.949 47.148 m 46.648 47.148 l S Q
q 1 0 0 1 0 0 cm
223.148 47.148 m 219.449 47.148 l S Q
q 1 0 0 1 0 0 cm
42.949 28.449 m 46.648 28.449 l S Q
q 1 0 0 1 0 0 cm
223.148 28.449 m 219.449 28.449 l S Q
q 1 0 0 1 0 0 cm
42.949 140.75 m 42.949 137.051 l S Q
q 1 0 0 1 0 0 cm
42.949 28.449 m 42.949 32.148 l S Q
q 1 0 0 1 0 0 cm
79 140.75 m 79 137.051 l S Q
q 1 0 0 1 0 0 cm
79 28.449 m 79 32.148 l S Q
q 1 0 0 1 0 0 cm
115.051 140.75 m 115.051 137.051 l S Q
q 1 0 0 1 0 0 cm
115.051 28.449 m 115.051 32.148 l S Q
q 1 0 0 1 0 0 cm
151.051 140.75 m 151.051 137.051 l S Q
q 1 0 0 1 0 0 cm
151.051 28.449 m 151.051 32.148 l S Q
q 1 0 0 1 0 0 cm
187.102 140.75 m 187.102 137.051 l S Q
q 1 0 0 1 0 0 cm
187.102 28.449 m 187.102 32.148 l S Q
q 1 0 0 1 0 0 cm
223.148 140.75 m 223.148 137.051 l S Q
q 1 0 0 1 0 0 cm
223.148 28.449 m 223.148 32.148 l S Q
q 1 0 0 1 0 0 cm
42.949 28.449 180.199 112.301 re S Q
0.580392 0 0.827451 rg
q 1 0 0 1 0 0 cm
188.852 36.801 m 212.949 36.801 l S Q
q 1 0 0 1 0 0 cm
42.949 84.602 m 44.352 81.699 l 45.75 78.852 l 47.102 76.051 l 48.449 73.352
 l 49.852 70.648 l 51.199 68.051 l 52.602 65.5 l 54 63 l 55.449 60.648 l
 56.949 58.398 l 58.449 56.25 l 60 54.25 l 61.5 52.5 l 63.051 51 l 64.551
 49.75 l 66 48.75 l 67.449 48 l 68.852 47.5 l 70.25 47.199 l 71.648 47.199
 l 73.051 47.352 l 74.5 47.75 l 75.898 48.398 l 77.301 49.25 l 78.699 50.352
 l 80.148 51.648 l 81.602 53.148 l 83.102 54.949 l 84.602 56.949 l 86.148
 59.199 l 87.699 61.699 l 89.301 64.449 l 90.898 67.301 l 92.449 70.199 
l 94 73.199 l 95.5 76.199 l 96.949 79.25 l 98.449 82.301 l 99.898 85.301
 l 101.352 88.352 l 102.852 91.352 l 105.75 97.25 l 107.25 100.102 l 108.75
 102.852 l 110.25 105.551 l 111.801 108.148 l 113.398 110.602 l 115.051 
112.898 l 116.699 115.051 l 118.352 116.949 l 120 118.551 l 121.648 119.801
 l 123.25 120.801 l 124.801 121.5 l 126.352 121.898 l 127.898 122.051 l 
129.449 121.898 l 130.949 121.5 l 132.5 120.801 l 134.051 119.852 l 135.648
 118.602 l 137.199 117.102 l 138.801 115.301 l 140.449 113.25 l 142.148 
110.898 l 143.852 108.199 l 145.648 105.199 l 147.449 102.051 l 149.148 
98.801 l 150.898 95.449 l 152.551 92.051 l 154.25 88.648 l 155.898 85.199
 l 157.551 81.801 l 159.199 78.398 l 160.852 75.051 l 162.5 71.75 l 164.199
 68.5 l 165.898 65.398 l 167.648 62.352 l 169.398 59.5 l 171.25 56.801 l
 173.148 54.301 l 175.102 52.148 l 177 50.352 l 178.898 48.949 l 180.75 
47.949 l 182.602 47.398 l 184.398 47.199 l 186.25 47.352 l 188.102 47.898
 l 189.949 48.898 l 191.801 50.25 l 193.699 52 l 195.699 54.199 l 197.699
 56.801 l 199.801 59.898 l 202 63.5 l 204.25 67.5 l 206.5 71.801 l 208.699
 76.199 l 210.949 80.801 l 213.199 85.449 l 215.5 90.199 l 217.852 95 l 
220.352 99.852 l 223.051 104.75 l 223.148 104.949 l S Q
0 0.619608 0.45098 rg
q 1 0 0 1 0 0 cm
188.852 46.102 m 212.949 46.102 l S Q
q 1 0 0 1 0 0 cm
42.949 47.148 m 44.352 47.301 l 45.75 47.602 l 47.102 48.148 l 48.449 48.898
 l 49.852 49.852 l 51.199 51.051 l 52.602 52.398 l 54 54 l 55.449 55.852
 l 56.949 57.898 l 58.449 60.148 l 60 62.699 l 61.5 65.352 l 63.051 68.102
 l 64.551 70.949 l 66 73.801 l 67.449 76.699 l 68.852 79.648 l 70.25 82.551
 l 71.648 85.449 l 73.051 88.352 l 74.5 91.25 l 75.898 94.102 l 77.301 96.898
 l 78.699 99.648 l 80.148 102.352 l 81.602 104.949 l 83.102 107.449 l 84.602
 109.852 l 86.148 112.102 l 87.699 114.25 l 89.301 116.148 l 90.898 117.801
 l 92.449 119.148 l 94 120.25 l 95.5 121.102 l 96.949 121.648 l 98.449 121.949
 l 99.898 122 l 101.352 121.852 l 102.852 121.398 l 104.301 120.75 l 105.75
 119.852 l 107.25 118.648 l 108.75 117.25 l 110.25 115.602 l 111.801 113.699
 l 113.398 111.5 l 115.051 109.051 l 116.699 106.352 l 118.352 103.398 l
 120 100.398 l 121.648 97.301 l 123.25 94.148 l 126.352 87.75 l 127.898 
84.551 l 129.449 81.352 l 130.949 78.199 l 132.5 75.051 l 134.051 72 l 135.648
 69 l 137.199 66.051 l 138.801 63.199 l 140.449 60.5 l 142.148 57.949 l 
143.852 55.551 l 145.648 53.352 l 147.449 51.5 l 149.148 49.949 l 150.898
 48.801 l 152.551 47.898 l 154.25 47.398 l 155.898 47.199 l 157.551 47.301
 l 159.199 47.699 l 160.852 48.398 l 162.5 49.449 l 164.199 50.801 l 165.898
 52.5 l 167.648 54.5 l 169.398 56.852 l 171.25 59.551 l 173.148 62.602 l
 175.102 66 l 177 69.5 l 178.898 73.199 l 180.75 76.898 l 182.602 80.699
 l 184.398 84.449 l 188.102 92.051 l 189.949 95.75 l 191.801 99.398 l 193.699
 102.949 l 195.699 106.398 l 197.699 109.648 l 199.801 112.699 l 202 115.5
 l 204.25 117.898 l 206.5 119.75 l 208.699 121.051 l 210.949 121.852 l 213.199
 122 l 215.5 121.602 l 217.852 120.551 l 220.352 118.75 l 223.051 116.148
 l 223.148 116 l S Q
0.337255 0.705882 0.913725 rg
q 1 0 0 1 0 0 cm
39.949 84.602 m 45.949 84.602 l S Q
q 1 0 0 1 0 0 cm
42.949 81.602 m 42.949 87.602 l S Q
q 1 0 0 1 0 0 cm
39.949 81.602 m 45.949 87.602 l S Q
q 1 0 0 1 0 0 cm
39.949 87.602 m 45.949 81.602 l S Q
q 1 0 0 1 0 0 cm
68.25 47.148 m 74.25 47.148 l S Q
q 1 0 0 1 0 0 cm
71.25 44.148 m 71.25 50.148 l S Q
q 1 0 0 1 0 0 cm
68.25 44.148 m 74.25 50.148 l S Q
q 1 0 0 1 0 0 cm
68.25 50.148 m 74.25 44.148 l S Q
q 1 0 0 1 0 0 cm
96.551 84.602 m 102.551 84.602 l S Q
q 1 0 0 1 0 0 cm
99.551 81.602 m 99.551 87.602 l S Q
q 1 0 0 1 0 0 cm
96.551 81.602 m 102.551 87.602 l S Q
q 1 0 0 1 0 0 cm
96.551 87.602 m 102.551 81.602 l S Q
q 1 0 0 1 0 0 cm
124.852 122.051 m 130.852 122.051 l S Q
q 1 0 0 1 0 0 cm
127.852 119.051 m 127.852 125.051 l S Q
q 1 0 0 1 0 0 cm
124.852 119.051 m 130.852 125.051 l S Q
q 1 0 0 1 0 0 cm
124.852 125.051 m 130.852 119.051 l S Q
q 1 0 0 1 0 0 cm
153.148 84.602 m 159.148 84.602 l S Q
q 1 0 0 1 0 0 cm
156.148 81.602 m 156.148 87.602 l S Q
q 1 0 0 1 0 0 cm
153.148 81.602 m 159.148 87.602 l S Q
q 1 0 0 1 0 0 cm
153.148 87.602 m 159.148 81.602 l S Q
q 1 0 0 1 0 0 cm
181.5 47.148 m 187.5 47.148 l S Q
q 1 0 0 1 0 0 cm
184.5 44.148 m 184.5 50.148 l S Q
q 1 0 0 1 0 0 cm
181.5 44.148 m 187.5 50.148 l S Q
q 1 0 0 1 0 0 cm
181.5 50.148 m 187.5 44.148 l S Q
q 1 0 0 1 0 0 cm
209.801 84.602 m 215.801 84.602 l S Q
q 1 0 0 1 0 0 cm
212.801 81.602 m 212.801 87.602 l S Q
q 1 0 0 1 0 0 cm
209.801 81.602 m 215.801 87.602 l S Q
q 1 0 0 1 0 0 cm
209.801 87.602 m 215.801 81.602 l S Q
0.901961 0.623529 0 rg
q 1 0 0 1 0 0 cm
39.949 44.148 6 6 re S Q
q 1 0 0 1 0 0 cm
68.25 81.602 6 6 re S Q
q 1 0 0 1 0 0 cm
96.551 119.051 6 6 re S Q
q 1 0 0 1 0 0 cm
124.852 81.602 6 6 re S Q
q 1 0 0 1 0 0 cm
153.148 44.148 6 6 re S Q
q 1 0 0 1 0 0 cm
181.5 81.602 6 6 re S Q
q 1 0 0 1 0 0 cm
209.801 119.051 6 6 re S Q
0 g
q 1 0 0 1 0 0 cm
42.949 28.449 180.199 112.301 re S Q
Q Q
showpage
%%Trailer
end
%%EOF
