<?xml version="1.0" encoding="utf-8"  standalone="no"?>
<svg 
 width="600" height="480"
 viewBox="0 0 600 480"
 xmlns="http://www.w3.org/2000/svg"
 xmlns:xlink="http://www.w3.org/1999/xlink"
>

<title>Gnuplot</title>
<desc>Produced by GNUPLOT 5.2 patchlevel 2 </desc>

<g id="gnuplot_canvas">

<rect x="0" y="0" width="600" height="480" fill="none"/>
<defs>

	<circle id='gpDot' r='0.5' stroke-width='0.5'/>
	<path id='gpPt0' stroke-width='0.222' stroke='currentColor' d='M-1,0 h2 M0,-1 v2'/>
	<path id='gpPt1' stroke-width='0.222' stroke='currentColor' d='M-1,-1 L1,1 M1,-1 L-1,1'/>
	<path id='gpPt2' stroke-width='0.222' stroke='currentColor' d='M-1,0 L1,0 M0,-1 L0,1 M-1,-1 L1,1 M-1,1 L1,-1'/>
	<rect id='gpPt3' stroke-width='0.222' stroke='currentColor' x='-1' y='-1' width='2' height='2'/>
	<rect id='gpPt4' stroke-width='0.222' stroke='currentColor' fill='currentColor' x='-1' y='-1' width='2' height='2'/>
	<circle id='gpPt5' stroke-width='0.222' stroke='currentColor' cx='0' cy='0' r='1'/>
	<use xlink:href='#gpPt5' id='gpPt6' fill='currentColor' stroke='none'/>
	<path id='gpPt7' stroke-width='0.222' stroke='currentColor' d='M0,-1.33 L-1.33,0.67 L1.33,0.67 z'/>
	<use xlink:href='#gpPt7' id='gpPt8' fill='currentColor' stroke='none'/>
	<use xlink:href='#gpPt7' id='gpPt9' stroke='currentColor' transform='rotate(180)'/>
	<use xlink:href='#gpPt9' id='gpPt10' fill='currentColor' stroke='none'/>
	<use xlink:href='#gpPt3' id='gpPt11' stroke='currentColor' transform='rotate(45)'/>
	<use xlink:href='#gpPt11' id='gpPt12' fill='currentColor' stroke='none'/>
	<path id='gpPt13' stroke-width='0.222' stroke='currentColor' d='M0,1.330 L1.265,0.411 L0.782,-1.067 L-0.782,-1.076 L-1.265,0.411 z'/>
	<use xlink:href='#gpPt13' id='gpPt14' fill='currentColor' stroke='none'/>
	<filter id='textbox' filterUnits='objectBoundingBox' x='0' y='0' height='1' width='1'>
	  <feFlood flood-color='white' flood-opacity='1' result='bgnd'/>
	  <feComposite in='SourceGraphic' in2='bgnd' operator='atop'/>
	</filter>
	<filter id='greybox' filterUnits='objectBoundingBox' x='0' y='0' height='1' width='1'>
	  <feFlood flood-color='lightgrey' flood-opacity='1' result='grey'/>
	  <feComposite in='SourceGraphic' in2='grey' operator='atop'/>
	</filter>
</defs>
<g fill="none" color="white" stroke="currentColor" stroke-width="1.00" stroke-linecap="butt" stroke-linejoin="miter">
</g>
<g fill="none" color="black" stroke="currentColor" stroke-width="1.00" stroke-linecap="butt" stroke-linejoin="miter">
	<path stroke='black'  d='M80.2,422.4 L89.2,422.4 M575.0,422.4 L566.0,422.4  '/>	<g transform="translate(71.9,426.3)" stroke="none" fill="black" font-family="Arial" font-size="12.00"  text-anchor="end">
		<text><tspan font-family="Arial" > 0</tspan></text>
	</g>
</g>
<g fill="none" color="black" stroke="currentColor" stroke-width="1.00" stroke-linecap="butt" stroke-linejoin="miter">
	<path stroke='black'  d='M80.2,385.6 L89.2,385.6 M575.0,385.6 L566.0,385.6  '/>	<g transform="translate(71.9,389.5)" stroke="none" fill="black" font-family="Arial" font-size="12.00"  text-anchor="end">
		<text><tspan font-family="Arial" > 0.02</tspan></text>
	</g>
</g>
<g fill="none" color="black" stroke="currentColor" stroke-width="1.00" stroke-linecap="butt" stroke-linejoin="miter">
	<path stroke='black'  d='M80.2,348.7 L89.2,348.7 M575.0,348.7 L566.0,348.7  '/>	<g transform="translate(71.9,352.6)" stroke="none" fill="black" font-family="Arial" font-size="12.00"  text-anchor="end">
		<text><tspan font-family="Arial" > 0.04</tspan></text>
	</g>
</g>
<g fill="none" color="black" stroke="currentColor" stroke-width="1.00" stroke-linecap="butt" stroke-linejoin="miter">
	<path stroke='black'  d='M80.2,311.9 L89.2,311.9 M575.0,311.9 L566.0,311.9  '/>	<g transform="translate(71.9,315.8)" stroke="none" fill="black" font-family="Arial" font-size="12.00"  text-anchor="end">
		<text><tspan font-family="Arial" > 0.06</tspan></text>
	</g>
</g>
<g fill="none" color="black" stroke="currentColor" stroke-width="1.00" stroke-linecap="butt" stroke-linejoin="miter">
	<path stroke='black'  d='M80.2,275.1 L89.2,275.1 M575.0,275.1 L566.0,275.1  '/>	<g transform="translate(71.9,279.0)" stroke="none" fill="black" font-family="Arial" font-size="12.00"  text-anchor="end">
		<text><tspan font-family="Arial" > 0.08</tspan></text>
	</g>
</g>
<g fill="none" color="black" stroke="currentColor" stroke-width="1.00" stroke-linecap="butt" stroke-linejoin="miter">
	<path stroke='black'  d='M80.2,238.2 L89.2,238.2 M575.0,238.2 L566.0,238.2  '/>	<g transform="translate(71.9,242.1)" stroke="none" fill="black" font-family="Arial" font-size="12.00"  text-anchor="end">
		<text><tspan font-family="Arial" > 0.1</tspan></text>
	</g>
</g>
<g fill="none" color="black" stroke="currentColor" stroke-width="1.00" stroke-linecap="butt" stroke-linejoin="miter">
	<path stroke='black'  d='M80.2,201.4 L89.2,201.4 M575.0,201.4 L566.0,201.4  '/>	<g transform="translate(71.9,205.3)" stroke="none" fill="black" font-family="Arial" font-size="12.00"  text-anchor="end">
		<text><tspan font-family="Arial" > 0.12</tspan></text>
	</g>
</g>
<g fill="none" color="black" stroke="currentColor" stroke-width="1.00" stroke-linecap="butt" stroke-linejoin="miter">
	<path stroke='black'  d='M80.2,164.6 L89.2,164.6 M575.0,164.6 L566.0,164.6  '/>	<g transform="translate(71.9,168.5)" stroke="none" fill="black" font-family="Arial" font-size="12.00"  text-anchor="end">
		<text><tspan font-family="Arial" > 0.14</tspan></text>
	</g>
</g>
<g fill="none" color="black" stroke="currentColor" stroke-width="1.00" stroke-linecap="butt" stroke-linejoin="miter">
	<path stroke='black'  d='M80.2,127.8 L89.2,127.8 M575.0,127.8 L566.0,127.8  '/>	<g transform="translate(71.9,131.7)" stroke="none" fill="black" font-family="Arial" font-size="12.00"  text-anchor="end">
		<text><tspan font-family="Arial" > 0.16</tspan></text>
	</g>
</g>
<g fill="none" color="black" stroke="currentColor" stroke-width="1.00" stroke-linecap="butt" stroke-linejoin="miter">
	<path stroke='black'  d='M80.2,90.9 L89.2,90.9 M575.0,90.9 L566.0,90.9  '/>	<g transform="translate(71.9,94.8)" stroke="none" fill="black" font-family="Arial" font-size="12.00"  text-anchor="end">
		<text><tspan font-family="Arial" > 0.18</tspan></text>
	</g>
</g>
<g fill="none" color="black" stroke="currentColor" stroke-width="1.00" stroke-linecap="butt" stroke-linejoin="miter">
	<path stroke='black'  d='M80.2,54.1 L89.2,54.1 M575.0,54.1 L566.0,54.1  '/>	<g transform="translate(71.9,58.0)" stroke="none" fill="black" font-family="Arial" font-size="12.00"  text-anchor="end">
		<text><tspan font-family="Arial" > 0.2</tspan></text>
	</g>
</g>
<g fill="none" color="black" stroke="currentColor" stroke-width="1.00" stroke-linecap="butt" stroke-linejoin="miter">
	<path stroke='black'  d='M80.2,422.4 L80.2,413.4 M80.2,54.1 L80.2,63.1  '/>	<g transform="translate(80.2,444.3)" stroke="none" fill="black" font-family="Arial" font-size="12.00"  text-anchor="middle">
		<text><tspan font-family="Arial" >-1</tspan></text>
	</g>
</g>
<g fill="none" color="black" stroke="currentColor" stroke-width="1.00" stroke-linecap="butt" stroke-linejoin="miter">
	<path stroke='black'  d='M129.7,422.4 L129.7,413.4 M129.7,54.1 L129.7,63.1  '/>	<g transform="translate(129.7,444.3)" stroke="none" fill="black" font-family="Arial" font-size="12.00"  text-anchor="middle">
		<text><tspan font-family="Arial" >-0.8</tspan></text>
	</g>
</g>
<g fill="none" color="black" stroke="currentColor" stroke-width="1.00" stroke-linecap="butt" stroke-linejoin="miter">
	<path stroke='black'  d='M179.2,422.4 L179.2,413.4 M179.2,54.1 L179.2,63.1  '/>	<g transform="translate(179.2,444.3)" stroke="none" fill="black" font-family="Arial" font-size="12.00"  text-anchor="middle">
		<text><tspan font-family="Arial" >-0.6</tspan></text>
	</g>
</g>
<g fill="none" color="black" stroke="currentColor" stroke-width="1.00" stroke-linecap="butt" stroke-linejoin="miter">
	<path stroke='black'  d='M228.6,422.4 L228.6,413.4 M228.6,54.1 L228.6,63.1  '/>	<g transform="translate(228.6,444.3)" stroke="none" fill="black" font-family="Arial" font-size="12.00"  text-anchor="middle">
		<text><tspan font-family="Arial" >-0.4</tspan></text>
	</g>
</g>
<g fill="none" color="black" stroke="currentColor" stroke-width="1.00" stroke-linecap="butt" stroke-linejoin="miter">
	<path stroke='black'  d='M278.1,422.4 L278.1,413.4 M278.1,54.1 L278.1,63.1  '/>	<g transform="translate(278.1,444.3)" stroke="none" fill="black" font-family="Arial" font-size="12.00"  text-anchor="middle">
		<text><tspan font-family="Arial" >-0.2</tspan></text>
	</g>
</g>
<g fill="none" color="black" stroke="currentColor" stroke-width="1.00" stroke-linecap="butt" stroke-linejoin="miter">
	<path stroke='black'  d='M327.6,422.4 L327.6,413.4 M327.6,54.1 L327.6,63.1  '/>	<g transform="translate(327.6,444.3)" stroke="none" fill="black" font-family="Arial" font-size="12.00"  text-anchor="middle">
		<text><tspan font-family="Arial" > 0</tspan></text>
	</g>
</g>
<g fill="none" color="black" stroke="currentColor" stroke-width="1.00" stroke-linecap="butt" stroke-linejoin="miter">
	<path stroke='black'  d='M377.1,422.4 L377.1,413.4 M377.1,54.1 L377.1,63.1  '/>	<g transform="translate(377.1,444.3)" stroke="none" fill="black" font-family="Arial" font-size="12.00"  text-anchor="middle">
		<text><tspan font-family="Arial" > 0.2</tspan></text>
	</g>
</g>
<g fill="none" color="black" stroke="currentColor" stroke-width="1.00" stroke-linecap="butt" stroke-linejoin="miter">
	<path stroke='black'  d='M426.6,422.4 L426.6,413.4 M426.6,54.1 L426.6,63.1  '/>	<g transform="translate(426.6,444.3)" stroke="none" fill="black" font-family="Arial" font-size="12.00"  text-anchor="middle">
		<text><tspan font-family="Arial" > 0.4</tspan></text>
	</g>
</g>
<g fill="none" color="black" stroke="currentColor" stroke-width="1.00" stroke-linecap="butt" stroke-linejoin="miter">
	<path stroke='black'  d='M476.0,422.4 L476.0,413.4 M476.0,54.1 L476.0,63.1  '/>	<g transform="translate(476.0,444.3)" stroke="none" fill="black" font-family="Arial" font-size="12.00"  text-anchor="middle">
		<text><tspan font-family="Arial" > 0.6</tspan></text>
	</g>
</g>
<g fill="none" color="black" stroke="currentColor" stroke-width="1.00" stroke-linecap="butt" stroke-linejoin="miter">
	<path stroke='black'  d='M525.5,422.4 L525.5,413.4 M525.5,54.1 L525.5,63.1  '/>	<g transform="translate(525.5,444.3)" stroke="none" fill="black" font-family="Arial" font-size="12.00"  text-anchor="middle">
		<text><tspan font-family="Arial" > 0.8</tspan></text>
	</g>
</g>
<g fill="none" color="black" stroke="currentColor" stroke-width="1.00" stroke-linecap="butt" stroke-linejoin="miter">
	<path stroke='black'  d='M575.0,422.4 L575.0,413.4 M575.0,54.1 L575.0,63.1  '/>	<g transform="translate(575.0,444.3)" stroke="none" fill="black" font-family="Arial" font-size="12.00"  text-anchor="middle">
		<text><tspan font-family="Arial" > 1</tspan></text>
	</g>
</g>
<g fill="none" color="black" stroke="currentColor" stroke-width="1.00" stroke-linecap="butt" stroke-linejoin="miter">
</g>
<g fill="none" color="black" stroke="currentColor" stroke-width="1.00" stroke-linecap="butt" stroke-linejoin="miter">
	<path stroke='black'  d='M80.2,54.1 L80.2,422.4 L575.0,422.4 L575.0,54.1 L80.2,54.1 Z  '/></g>
<g fill="none" color="black" stroke="currentColor" stroke-width="1.00" stroke-linecap="butt" stroke-linejoin="miter">
	<g transform="translate(16.3,238.3) rotate(270)" stroke="none" fill="black" font-family="Arial" font-size="12.00"  text-anchor="middle">
		<text><tspan font-family="Arial" >y</tspan></text>
	</g>
</g>
<g fill="none" color="black" stroke="currentColor" stroke-width="1.00" stroke-linecap="butt" stroke-linejoin="miter">
	<g transform="translate(327.6,471.3)" stroke="none" fill="black" font-family="Arial" font-size="12.00"  text-anchor="middle">
		<text><tspan font-family="Arial" >x</tspan></text>
	</g>
</g>
<g fill="none" color="black" stroke="currentColor" stroke-width="1.00" stroke-linecap="butt" stroke-linejoin="miter">
	<g transform="translate(327.6,31.0)" stroke="none" fill="black" font-family="Arial" font-size="12.00"  text-anchor="middle">
		<text><tspan font-family="Arial" >Part B: trying to fit anti-derivative of part A</tspan></text>
	</g>
</g>
	<g id="gnuplot_plot_1" ><title>fit Wavelet</title>
<g fill="none" color="black" stroke="currentColor" stroke-width="1.00" stroke-linecap="butt" stroke-linejoin="miter">
	<g transform="translate(507.9,76.0)" stroke="none" fill="black" font-family="Arial" font-size="12.00"  text-anchor="end">
		<text><tspan font-family="Arial" >fit Wavelet</tspan></text>
	</g>
</g>
<g fill="none" color="black" stroke="currentColor" stroke-width="1.00" stroke-linecap="butt" stroke-linejoin="miter">
	<path stroke='rgb(148,   0, 211)'  d='M516.2,72.1 L558.4,72.1 M80.2,422.4 L82.7,417.8 L85.1,413.0 L87.6,408.0 L90.1,402.7 L92.6,397.2
		L95.0,391.6 L97.5,385.7 L100.0,379.5 L102.5,373.2 L104.9,366.8 L107.4,360.1 L109.9,353.3 L112.4,346.3
		L114.8,339.2 L117.3,331.9 L119.8,324.5 L122.3,317.0 L124.7,309.5 L127.2,301.8 L129.7,294.1 L132.2,286.3
		L134.6,278.5 L137.1,270.7 L139.6,262.8 L142.1,255.0 L144.5,247.3 L147.0,239.5 L149.5,231.8 L151.9,224.2
		L154.4,216.7 L156.9,209.3 L159.4,202.0 L161.8,194.9 L164.3,187.9 L166.8,181.0 L169.3,174.4 L171.7,167.9
		L174.2,161.6 L176.7,155.6 L179.2,149.8 L181.6,144.2 L184.1,138.9 L186.6,133.8 L189.1,129.0 L191.5,124.4
		L194.0,120.1 L196.5,116.1 L199.0,112.4 L201.4,109.0 L203.9,105.9 L206.4,103.1 L208.8,100.5 L211.3,98.3
		L213.8,96.3 L216.3,94.7 L218.7,93.3 L221.2,92.2 L223.7,91.3 L226.2,90.8 L228.6,90.5 L231.1,90.5
		L233.6,90.7 L236.1,91.1 L238.5,91.8 L241.0,92.7 L243.5,93.8 L246.0,95.0 L248.4,96.5 L250.9,98.1
		L253.4,99.9 L255.9,101.8 L258.3,103.8 L260.8,106.0 L263.3,108.2 L265.8,110.5 L268.2,112.9 L270.7,115.3
		L273.2,117.7 L275.6,120.2 L278.1,122.7 L280.6,125.1 L283.1,127.5 L285.5,129.9 L288.0,132.3 L290.5,134.5
		L293.0,136.7 L295.4,138.8 L297.9,140.7 L300.4,142.6 L302.9,144.3 L305.3,145.9 L307.8,147.4 L310.3,148.7
		L312.8,149.8 L315.2,150.8 L317.7,151.6 L320.2,152.2 L322.7,152.6 L325.1,152.9 L327.6,153.0 L330.1,152.9
		L332.5,152.6 L335.0,152.1 L337.5,151.5 L340.0,150.6 L342.4,149.6 L344.9,148.5 L347.4,147.2 L349.9,145.7
		L352.3,144.1 L354.8,142.4 L357.3,140.5 L359.8,138.5 L362.2,136.4 L364.7,134.2 L367.2,132.0 L369.7,129.7
		L372.1,127.3 L374.6,124.9 L377.1,122.4 L379.6,120.0 L382.0,117.5 L384.5,115.1 L387.0,112.7 L389.5,110.3
		L391.9,108.0 L394.4,105.8 L396.9,103.7 L399.3,101.7 L401.8,99.8 L404.3,98.1 L406.8,96.5 L409.2,95.1
		L411.7,93.8 L414.2,92.8 L416.7,91.9 L419.1,91.2 L421.6,90.8 L424.1,90.6 L426.6,90.7 L429.0,91.0
		L431.5,91.6 L434.0,92.4 L436.5,93.5 L438.9,94.9 L441.4,96.6 L443.9,98.5 L446.4,100.8 L448.8,103.3
		L451.3,106.1 L453.8,109.3 L456.2,112.7 L458.7,116.4 L461.2,120.3 L463.7,124.6 L466.1,129.1 L468.6,133.9
		L471.1,139.0 L473.6,144.3 L476.0,149.8 L478.5,155.6 L481.0,161.6 L483.5,167.9 L485.9,174.3 L488.4,180.9
		L490.9,187.7 L493.4,194.7 L495.8,201.8 L498.3,209.1 L500.8,216.5 L503.3,223.9 L505.7,231.5 L508.2,239.2
		L510.7,246.9 L513.2,254.7 L515.6,262.5 L518.1,270.4 L520.6,278.2 L523.0,286.0 L525.5,293.8 L528.0,301.5
		L530.5,309.2 L532.9,316.8 L535.4,324.4 L537.9,331.8 L540.4,339.1 L542.8,346.2 L545.3,353.3 L547.8,360.1
		L550.3,366.9 L552.7,373.4 L555.2,379.7 L557.7,385.9 L560.2,391.8 L562.6,397.5 L565.1,403.0 L567.6,408.3
		L570.1,413.3 L572.5,418.1  '/></g>
	</g>
	<g id="gnuplot_plot_2" ><title>fit Gauss</title>
<g fill="none" color="black" stroke="currentColor" stroke-width="1.00" stroke-linecap="butt" stroke-linejoin="miter">
	<g transform="translate(507.9,94.0)" stroke="none" fill="black" font-family="Arial" font-size="12.00"  text-anchor="end">
		<text><tspan font-family="Arial" >fit Gauss</tspan></text>
	</g>
</g>
<g fill="none" color="black" stroke="currentColor" stroke-width="1.00" stroke-linecap="butt" stroke-linejoin="miter">
	<path stroke='rgb(  0, 158, 115)'  d='M516.2,90.1 L558.4,90.1 M80.2,422.4 L82.7,418.0 L85.1,413.3 L87.6,408.3 L90.1,403.1 L92.6,397.6
		L95.0,391.9 L97.5,386.0 L100.0,379.8 L102.5,373.4 L104.9,366.8 L107.4,360.0 L109.9,353.1 L112.4,345.9
		L114.8,338.7 L117.3,331.3 L119.8,323.7 L122.3,316.1 L124.7,308.4 L127.2,300.6 L129.7,292.7 L132.2,284.8
		L134.6,276.9 L137.1,269.0 L139.6,261.1 L142.1,253.2 L144.5,245.3 L147.0,237.5 L149.5,229.8 L151.9,222.2
		L154.4,214.7 L156.9,207.3 L159.4,200.0 L161.8,192.9 L164.3,185.9 L166.8,179.1 L169.3,172.6 L171.7,166.2
		L174.2,160.0 L176.7,154.0 L179.2,148.3 L181.6,142.9 L184.1,137.6 L186.6,132.7 L189.1,128.0 L191.5,123.6
		L194.0,119.4 L196.5,115.5 L199.0,112.0 L201.4,108.7 L203.9,105.6 L206.4,102.9 L208.8,100.5 L211.3,98.3
		L213.8,96.4 L216.3,94.8 L218.7,93.5 L221.2,92.5 L223.7,91.7 L226.2,91.2 L228.6,90.9 L231.1,90.8
		L233.6,91.0 L236.1,91.5 L238.5,92.1 L241.0,92.9 L243.5,93.9 L246.0,95.2 L248.4,96.5 L250.9,98.1
		L253.4,99.7 L255.9,101.5 L258.3,103.4 L260.8,105.5 L263.3,107.6 L265.8,109.7 L268.2,112.0 L270.7,114.3
		L273.2,116.6 L275.6,118.9 L278.1,121.2 L280.6,123.6 L283.1,125.9 L285.5,128.1 L288.0,130.4 L290.5,132.5
		L293.0,134.6 L295.4,136.6 L297.9,138.5 L300.4,140.3 L302.9,142.0 L305.3,143.6 L307.8,145.0 L310.3,146.3
		L312.8,147.5 L315.2,148.5 L317.7,149.3 L320.2,150.0 L322.7,150.5 L325.1,150.8 L327.6,151.0 L330.1,151.0
		L332.5,150.8 L335.0,150.4 L337.5,149.9 L340.0,149.2 L342.4,148.3 L344.9,147.3 L347.4,146.1 L349.9,144.7
		L352.3,143.3 L354.8,141.6 L357.3,139.9 L359.8,138.0 L362.2,136.0 L364.7,134.0 L367.2,131.8 L369.7,129.5
		L372.1,127.2 L374.6,124.9 L377.1,122.5 L379.6,120.0 L382.0,117.6 L384.5,115.2 L387.0,112.8 L389.5,110.4
		L391.9,108.1 L394.4,105.8 L396.9,103.7 L399.3,101.6 L401.8,99.6 L404.3,97.8 L406.8,96.1 L409.2,94.6
		L411.7,93.2 L414.2,92.0 L416.7,91.0 L419.1,90.3 L421.6,89.7 L424.1,89.4 L426.6,89.4 L429.0,89.6
		L431.5,90.0 L434.0,90.8 L436.5,91.8 L438.9,93.1 L441.4,94.7 L443.9,96.6 L446.4,98.8 L448.8,101.3
		L451.3,104.1 L453.8,107.2 L456.2,110.6 L458.7,114.3 L461.2,118.3 L463.7,122.6 L466.1,127.2 L468.6,132.1
		L471.1,137.2 L473.6,142.6 L476.0,148.2 L478.5,154.1 L481.0,160.3 L483.5,166.6 L485.9,173.2 L488.4,179.9
		L490.9,186.8 L493.4,193.9 L495.8,201.2 L498.3,208.5 L500.8,216.0 L503.3,223.6 L505.7,231.3 L508.2,239.0
		L510.7,246.8 L513.2,254.7 L515.6,262.5 L518.1,270.4 L520.6,278.2 L523.0,286.0 L525.5,293.7 L528.0,301.4
		L530.5,309.0 L532.9,316.5 L535.4,323.9 L537.9,331.2 L540.4,338.4 L542.8,345.4 L545.3,352.3 L547.8,359.0
		L550.3,365.6 L552.7,371.9 L555.2,378.1 L557.7,384.1 L560.2,390.0 L562.6,395.6 L565.1,401.0 L567.6,406.2
		L570.1,411.3 L572.5,416.1  '/></g>
	</g>
	<g id="gnuplot_plot_3" ><title>fit gausswavelet</title>
<g fill="none" color="black" stroke="currentColor" stroke-width="1.00" stroke-linecap="butt" stroke-linejoin="miter">
	<g transform="translate(507.9,112.0)" stroke="none" fill="black" font-family="Arial" font-size="12.00"  text-anchor="end">
		<text><tspan font-family="Arial" >fit gausswavelet</tspan></text>
	</g>
</g>
<g fill="none" color="black" stroke="currentColor" stroke-width="1.00" stroke-linecap="butt" stroke-linejoin="miter">
	<path stroke='rgb( 86, 180, 233)'  d='M516.2,108.1 L558.4,108.1 M80.2,422.4 L82.7,417.9 L85.1,413.1 L87.6,408.1 L90.1,402.8 L92.6,397.2
		L95.0,391.5 L97.5,385.4 L100.0,379.2 L102.5,372.8 L104.9,366.2 L107.4,359.4 L109.9,352.5 L112.4,345.4
		L114.8,338.1 L117.3,330.8 L119.8,323.3 L122.3,315.7 L124.7,308.1 L127.2,300.4 L129.7,292.6 L132.2,284.8
		L134.6,277.0 L137.1,269.2 L139.6,261.4 L142.1,253.6 L144.5,245.9 L147.0,238.2 L149.5,230.6 L151.9,223.0
		L154.4,215.6 L156.9,208.3 L159.4,201.1 L161.8,194.0 L164.3,187.1 L166.8,180.3 L169.3,173.8 L171.7,167.4
		L174.2,161.2 L176.7,155.2 L179.2,149.5 L181.6,144.0 L184.1,138.7 L186.6,133.7 L189.1,128.9 L191.5,124.4
		L194.0,120.1 L196.5,116.1 L199.0,112.4 L201.4,109.0 L203.9,105.9 L206.4,103.0 L208.8,100.5 L211.3,98.2
		L213.8,96.2 L216.3,94.5 L218.7,93.0 L221.2,91.9 L223.7,91.0 L226.2,90.4 L228.6,90.0 L231.1,89.9
		L233.6,90.0 L236.1,90.4 L238.5,91.0 L241.0,91.8 L243.5,92.9 L246.0,94.1 L248.4,95.5 L250.9,97.1
		L253.4,98.8 L255.9,100.6 L258.3,102.6 L260.8,104.8 L263.3,107.0 L265.8,109.3 L268.2,111.6 L270.7,114.0
		L273.2,116.5 L275.6,119.0 L278.1,121.5 L280.6,123.9 L283.1,126.4 L285.5,128.8 L288.0,131.2 L290.5,133.5
		L293.0,135.7 L295.4,137.8 L297.9,139.9 L300.4,141.8 L302.9,143.6 L305.3,145.2 L307.8,146.7 L310.3,148.1
		L312.8,149.3 L315.2,150.3 L317.7,151.1 L320.2,151.8 L322.7,152.3 L325.1,152.6 L327.6,152.7 L330.1,152.6
		L332.5,152.3 L335.0,151.9 L337.5,151.3 L340.0,150.4 L342.4,149.4 L344.9,148.3 L347.4,147.0 L349.9,145.5
		L352.3,143.8 L354.8,142.1 L357.3,140.2 L359.8,138.1 L362.2,136.0 L364.7,133.8 L367.2,131.5 L369.7,129.1
		L372.1,126.7 L374.6,124.2 L377.1,121.7 L379.6,119.2 L382.0,116.7 L384.5,114.3 L387.0,111.8 L389.5,109.4
		L391.9,107.1 L394.4,104.9 L396.9,102.7 L399.3,100.7 L401.8,98.8 L404.3,97.0 L406.8,95.4 L409.2,94.0
		L411.7,92.7 L414.2,91.7 L416.7,90.8 L419.1,90.2 L421.6,89.8 L424.1,89.6 L426.6,89.7 L429.0,90.1
		L431.5,90.7 L434.0,91.6 L436.5,92.7 L438.9,94.1 L441.4,95.8 L443.9,97.8 L446.4,100.1 L448.8,102.7
		L451.3,105.6 L453.8,108.7 L456.2,112.2 L458.7,115.9 L461.2,119.9 L463.7,124.2 L466.1,128.7 L468.6,133.5
		L471.1,138.6 L473.6,143.9 L476.0,149.5 L478.5,155.3 L481.0,161.3 L483.5,167.5 L485.9,173.9 L488.4,180.5
		L490.9,187.3 L493.4,194.2 L495.8,201.3 L498.3,208.6 L500.8,215.9 L503.3,223.4 L505.7,230.9 L508.2,238.6
		L510.7,246.3 L513.2,254.0 L515.6,261.8 L518.1,269.6 L520.6,277.4 L523.0,285.2 L525.5,292.9 L528.0,300.7
		L530.5,308.3 L532.9,315.9 L535.4,323.5 L537.9,330.9 L540.4,338.2 L542.8,345.4 L545.3,352.4 L547.8,359.3
		L550.3,366.1 L552.7,372.6 L555.2,379.0 L557.7,385.2 L560.2,391.1 L562.6,396.9 L565.1,402.4 L567.6,407.7
		L570.1,412.8 L572.5,417.6  '/></g>
	</g>
	<g id="gnuplot_plot_4" ><title>True Integral</title>
<g fill="none" color="black" stroke="currentColor" stroke-width="1.00" stroke-linecap="butt" stroke-linejoin="miter">
	<g transform="translate(507.9,130.0)" stroke="none" fill="black" font-family="Arial" font-size="12.00"  text-anchor="end">
		<text><tspan font-family="Arial" >True Integral</tspan></text>
	</g>
</g>
<g fill="none" color="black" stroke="currentColor" stroke-width="1.00" stroke-linecap="butt" stroke-linejoin="miter">
	<use xlink:href='#gpPt3' transform='translate(82.7,417.8) scale(4.50)' color='rgb(230, 159,   0)'/>
	<use xlink:href='#gpPt3' transform='translate(85.1,413.1) scale(4.50)' color='rgb(230, 159,   0)'/>
	<use xlink:href='#gpPt3' transform='translate(87.6,408.0) scale(4.50)' color='rgb(230, 159,   0)'/>
	<use xlink:href='#gpPt3' transform='translate(90.1,402.7) scale(4.50)' color='rgb(230, 159,   0)'/>
	<use xlink:href='#gpPt3' transform='translate(92.6,397.2) scale(4.50)' color='rgb(230, 159,   0)'/>
	<use xlink:href='#gpPt3' transform='translate(95.0,391.5) scale(4.50)' color='rgb(230, 159,   0)'/>
	<use xlink:href='#gpPt3' transform='translate(97.5,385.6) scale(4.50)' color='rgb(230, 159,   0)'/>
	<use xlink:href='#gpPt3' transform='translate(100.0,379.4) scale(4.50)' color='rgb(230, 159,   0)'/>
	<use xlink:href='#gpPt3' transform='translate(102.5,373.1) scale(4.50)' color='rgb(230, 159,   0)'/>
	<use xlink:href='#gpPt3' transform='translate(104.9,366.6) scale(4.50)' color='rgb(230, 159,   0)'/>
	<use xlink:href='#gpPt3' transform='translate(107.4,359.9) scale(4.50)' color='rgb(230, 159,   0)'/>
	<use xlink:href='#gpPt3' transform='translate(109.9,353.0) scale(4.50)' color='rgb(230, 159,   0)'/>
	<use xlink:href='#gpPt3' transform='translate(112.4,346.0) scale(4.50)' color='rgb(230, 159,   0)'/>
	<use xlink:href='#gpPt3' transform='translate(114.8,338.9) scale(4.50)' color='rgb(230, 159,   0)'/>
	<use xlink:href='#gpPt3' transform='translate(117.3,331.6) scale(4.50)' color='rgb(230, 159,   0)'/>
	<use xlink:href='#gpPt3' transform='translate(119.8,324.2) scale(4.50)' color='rgb(230, 159,   0)'/>
	<use xlink:href='#gpPt3' transform='translate(122.3,316.7) scale(4.50)' color='rgb(230, 159,   0)'/>
	<use xlink:href='#gpPt3' transform='translate(124.7,309.1) scale(4.50)' color='rgb(230, 159,   0)'/>
	<use xlink:href='#gpPt3' transform='translate(127.2,301.4) scale(4.50)' color='rgb(230, 159,   0)'/>
	<use xlink:href='#gpPt3' transform='translate(129.7,293.7) scale(4.50)' color='rgb(230, 159,   0)'/>
	<use xlink:href='#gpPt3' transform='translate(132.2,285.9) scale(4.50)' color='rgb(230, 159,   0)'/>
	<use xlink:href='#gpPt3' transform='translate(134.6,278.1) scale(4.50)' color='rgb(230, 159,   0)'/>
	<use xlink:href='#gpPt3' transform='translate(137.1,270.3) scale(4.50)' color='rgb(230, 159,   0)'/>
	<use xlink:href='#gpPt3' transform='translate(139.6,262.4) scale(4.50)' color='rgb(230, 159,   0)'/>
	<use xlink:href='#gpPt3' transform='translate(142.1,254.6) scale(4.50)' color='rgb(230, 159,   0)'/>
	<use xlink:href='#gpPt3' transform='translate(144.5,246.9) scale(4.50)' color='rgb(230, 159,   0)'/>
	<use xlink:href='#gpPt3' transform='translate(147.0,239.1) scale(4.50)' color='rgb(230, 159,   0)'/>
	<use xlink:href='#gpPt3' transform='translate(149.5,231.5) scale(4.50)' color='rgb(230, 159,   0)'/>
	<use xlink:href='#gpPt3' transform='translate(151.9,223.9) scale(4.50)' color='rgb(230, 159,   0)'/>
	<use xlink:href='#gpPt3' transform='translate(154.4,216.4) scale(4.50)' color='rgb(230, 159,   0)'/>
	<use xlink:href='#gpPt3' transform='translate(156.9,209.0) scale(4.50)' color='rgb(230, 159,   0)'/>
	<use xlink:href='#gpPt3' transform='translate(159.4,201.8) scale(4.50)' color='rgb(230, 159,   0)'/>
	<use xlink:href='#gpPt3' transform='translate(161.8,194.6) scale(4.50)' color='rgb(230, 159,   0)'/>
	<use xlink:href='#gpPt3' transform='translate(164.3,187.7) scale(4.50)' color='rgb(230, 159,   0)'/>
	<use xlink:href='#gpPt3' transform='translate(166.8,180.8) scale(4.50)' color='rgb(230, 159,   0)'/>
	<use xlink:href='#gpPt3' transform='translate(169.3,174.2) scale(4.50)' color='rgb(230, 159,   0)'/>
	<use xlink:href='#gpPt3' transform='translate(171.7,167.8) scale(4.50)' color='rgb(230, 159,   0)'/>
	<use xlink:href='#gpPt3' transform='translate(174.2,161.5) scale(4.50)' color='rgb(230, 159,   0)'/>
	<use xlink:href='#gpPt3' transform='translate(176.7,155.5) scale(4.50)' color='rgb(230, 159,   0)'/>
	<use xlink:href='#gpPt3' transform='translate(179.2,149.7) scale(4.50)' color='rgb(230, 159,   0)'/>
	<use xlink:href='#gpPt3' transform='translate(181.6,144.1) scale(4.50)' color='rgb(230, 159,   0)'/>
	<use xlink:href='#gpPt3' transform='translate(184.1,138.8) scale(4.50)' color='rgb(230, 159,   0)'/>
	<use xlink:href='#gpPt3' transform='translate(186.6,133.8) scale(4.50)' color='rgb(230, 159,   0)'/>
	<use xlink:href='#gpPt3' transform='translate(189.1,128.9) scale(4.50)' color='rgb(230, 159,   0)'/>
	<use xlink:href='#gpPt3' transform='translate(191.5,124.4) scale(4.50)' color='rgb(230, 159,   0)'/>
	<use xlink:href='#gpPt3' transform='translate(194.0,120.1) scale(4.50)' color='rgb(230, 159,   0)'/>
	<use xlink:href='#gpPt3' transform='translate(196.5,116.2) scale(4.50)' color='rgb(230, 159,   0)'/>
	<use xlink:href='#gpPt3' transform='translate(199.0,112.4) scale(4.50)' color='rgb(230, 159,   0)'/>
	<use xlink:href='#gpPt3' transform='translate(201.4,109.0) scale(4.50)' color='rgb(230, 159,   0)'/>
	<use xlink:href='#gpPt3' transform='translate(203.9,105.9) scale(4.50)' color='rgb(230, 159,   0)'/>
	<use xlink:href='#gpPt3' transform='translate(206.4,103.1) scale(4.50)' color='rgb(230, 159,   0)'/>
	<use xlink:href='#gpPt3' transform='translate(208.8,100.5) scale(4.50)' color='rgb(230, 159,   0)'/>
	<use xlink:href='#gpPt3' transform='translate(211.3,98.3) scale(4.50)' color='rgb(230, 159,   0)'/>
	<use xlink:href='#gpPt3' transform='translate(213.8,96.3) scale(4.50)' color='rgb(230, 159,   0)'/>
	<use xlink:href='#gpPt3' transform='translate(216.3,94.6) scale(4.50)' color='rgb(230, 159,   0)'/>
	<use xlink:href='#gpPt3' transform='translate(218.7,93.2) scale(4.50)' color='rgb(230, 159,   0)'/>
	<use xlink:href='#gpPt3' transform='translate(221.2,92.1) scale(4.50)' color='rgb(230, 159,   0)'/>
	<use xlink:href='#gpPt3' transform='translate(223.7,91.3) scale(4.50)' color='rgb(230, 159,   0)'/>
	<use xlink:href='#gpPt3' transform='translate(226.2,90.7) scale(4.50)' color='rgb(230, 159,   0)'/>
	<use xlink:href='#gpPt3' transform='translate(228.6,90.4) scale(4.50)' color='rgb(230, 159,   0)'/>
	<use xlink:href='#gpPt3' transform='translate(231.1,90.3) scale(4.50)' color='rgb(230, 159,   0)'/>
	<use xlink:href='#gpPt3' transform='translate(233.6,90.5) scale(4.50)' color='rgb(230, 159,   0)'/>
	<use xlink:href='#gpPt3' transform='translate(236.1,90.9) scale(4.50)' color='rgb(230, 159,   0)'/>
	<use xlink:href='#gpPt3' transform='translate(238.5,91.6) scale(4.50)' color='rgb(230, 159,   0)'/>
	<use xlink:href='#gpPt3' transform='translate(241.0,92.4) scale(4.50)' color='rgb(230, 159,   0)'/>
	<use xlink:href='#gpPt3' transform='translate(243.5,93.5) scale(4.50)' color='rgb(230, 159,   0)'/>
	<use xlink:href='#gpPt3' transform='translate(246.0,94.8) scale(4.50)' color='rgb(230, 159,   0)'/>
	<use xlink:href='#gpPt3' transform='translate(248.4,96.2) scale(4.50)' color='rgb(230, 159,   0)'/>
	<use xlink:href='#gpPt3' transform='translate(250.9,97.8) scale(4.50)' color='rgb(230, 159,   0)'/>
	<use xlink:href='#gpPt3' transform='translate(253.4,99.6) scale(4.50)' color='rgb(230, 159,   0)'/>
	<use xlink:href='#gpPt3' transform='translate(255.9,101.5) scale(4.50)' color='rgb(230, 159,   0)'/>
	<use xlink:href='#gpPt3' transform='translate(258.3,103.5) scale(4.50)' color='rgb(230, 159,   0)'/>
	<use xlink:href='#gpPt3' transform='translate(260.8,105.6) scale(4.50)' color='rgb(230, 159,   0)'/>
	<use xlink:href='#gpPt3' transform='translate(263.3,107.8) scale(4.50)' color='rgb(230, 159,   0)'/>
	<use xlink:href='#gpPt3' transform='translate(265.8,110.1) scale(4.50)' color='rgb(230, 159,   0)'/>
	<use xlink:href='#gpPt3' transform='translate(268.2,112.5) scale(4.50)' color='rgb(230, 159,   0)'/>
	<use xlink:href='#gpPt3' transform='translate(270.7,114.9) scale(4.50)' color='rgb(230, 159,   0)'/>
	<use xlink:href='#gpPt3' transform='translate(273.2,117.4) scale(4.50)' color='rgb(230, 159,   0)'/>
	<use xlink:href='#gpPt3' transform='translate(275.6,119.8) scale(4.50)' color='rgb(230, 159,   0)'/>
	<use xlink:href='#gpPt3' transform='translate(278.1,122.3) scale(4.50)' color='rgb(230, 159,   0)'/>
	<use xlink:href='#gpPt3' transform='translate(280.6,124.8) scale(4.50)' color='rgb(230, 159,   0)'/>
	<use xlink:href='#gpPt3' transform='translate(283.1,127.2) scale(4.50)' color='rgb(230, 159,   0)'/>
	<use xlink:href='#gpPt3' transform='translate(285.5,129.6) scale(4.50)' color='rgb(230, 159,   0)'/>
	<use xlink:href='#gpPt3' transform='translate(288.0,131.9) scale(4.50)' color='rgb(230, 159,   0)'/>
	<use xlink:href='#gpPt3' transform='translate(290.5,134.2) scale(4.50)' color='rgb(230, 159,   0)'/>
	<use xlink:href='#gpPt3' transform='translate(293.0,136.4) scale(4.50)' color='rgb(230, 159,   0)'/>
	<use xlink:href='#gpPt3' transform='translate(295.4,138.5) scale(4.50)' color='rgb(230, 159,   0)'/>
	<use xlink:href='#gpPt3' transform='translate(297.9,140.5) scale(4.50)' color='rgb(230, 159,   0)'/>
	<use xlink:href='#gpPt3' transform='translate(300.4,142.3) scale(4.50)' color='rgb(230, 159,   0)'/>
	<use xlink:href='#gpPt3' transform='translate(302.9,144.1) scale(4.50)' color='rgb(230, 159,   0)'/>
	<use xlink:href='#gpPt3' transform='translate(305.3,145.7) scale(4.50)' color='rgb(230, 159,   0)'/>
	<use xlink:href='#gpPt3' transform='translate(307.8,147.1) scale(4.50)' color='rgb(230, 159,   0)'/>
	<use xlink:href='#gpPt3' transform='translate(310.3,148.5) scale(4.50)' color='rgb(230, 159,   0)'/>
	<use xlink:href='#gpPt3' transform='translate(312.8,149.6) scale(4.50)' color='rgb(230, 159,   0)'/>
	<use xlink:href='#gpPt3' transform='translate(315.2,150.6) scale(4.50)' color='rgb(230, 159,   0)'/>
	<use xlink:href='#gpPt3' transform='translate(317.7,151.4) scale(4.50)' color='rgb(230, 159,   0)'/>
	<use xlink:href='#gpPt3' transform='translate(320.2,152.0) scale(4.50)' color='rgb(230, 159,   0)'/>
	<use xlink:href='#gpPt3' transform='translate(322.7,152.5) scale(4.50)' color='rgb(230, 159,   0)'/>
	<use xlink:href='#gpPt3' transform='translate(325.1,152.8) scale(4.50)' color='rgb(230, 159,   0)'/>
	<use xlink:href='#gpPt3' transform='translate(327.6,152.9) scale(4.50)' color='rgb(230, 159,   0)'/>
	<use xlink:href='#gpPt3' transform='translate(330.1,152.8) scale(4.50)' color='rgb(230, 159,   0)'/>
	<use xlink:href='#gpPt3' transform='translate(332.5,152.5) scale(4.50)' color='rgb(230, 159,   0)'/>
	<use xlink:href='#gpPt3' transform='translate(335.0,152.0) scale(4.50)' color='rgb(230, 159,   0)'/>
	<use xlink:href='#gpPt3' transform='translate(337.5,151.4) scale(4.50)' color='rgb(230, 159,   0)'/>
	<use xlink:href='#gpPt3' transform='translate(340.0,150.6) scale(4.50)' color='rgb(230, 159,   0)'/>
	<use xlink:href='#gpPt3' transform='translate(342.4,149.6) scale(4.50)' color='rgb(230, 159,   0)'/>
	<use xlink:href='#gpPt3' transform='translate(344.9,148.5) scale(4.50)' color='rgb(230, 159,   0)'/>
	<use xlink:href='#gpPt3' transform='translate(347.4,147.1) scale(4.50)' color='rgb(230, 159,   0)'/>
	<use xlink:href='#gpPt3' transform='translate(349.9,145.7) scale(4.50)' color='rgb(230, 159,   0)'/>
	<use xlink:href='#gpPt3' transform='translate(352.3,144.1) scale(4.50)' color='rgb(230, 159,   0)'/>
	<use xlink:href='#gpPt3' transform='translate(354.8,142.3) scale(4.50)' color='rgb(230, 159,   0)'/>
	<use xlink:href='#gpPt3' transform='translate(357.3,140.5) scale(4.50)' color='rgb(230, 159,   0)'/>
	<use xlink:href='#gpPt3' transform='translate(359.8,138.5) scale(4.50)' color='rgb(230, 159,   0)'/>
	<use xlink:href='#gpPt3' transform='translate(362.2,136.4) scale(4.50)' color='rgb(230, 159,   0)'/>
	<use xlink:href='#gpPt3' transform='translate(364.7,134.2) scale(4.50)' color='rgb(230, 159,   0)'/>
	<use xlink:href='#gpPt3' transform='translate(367.2,131.9) scale(4.50)' color='rgb(230, 159,   0)'/>
	<use xlink:href='#gpPt3' transform='translate(369.7,129.6) scale(4.50)' color='rgb(230, 159,   0)'/>
	<use xlink:href='#gpPt3' transform='translate(372.1,127.2) scale(4.50)' color='rgb(230, 159,   0)'/>
	<use xlink:href='#gpPt3' transform='translate(374.6,124.8) scale(4.50)' color='rgb(230, 159,   0)'/>
	<use xlink:href='#gpPt3' transform='translate(377.1,122.3) scale(4.50)' color='rgb(230, 159,   0)'/>
	<use xlink:href='#gpPt3' transform='translate(379.6,119.8) scale(4.50)' color='rgb(230, 159,   0)'/>
	<use xlink:href='#gpPt3' transform='translate(382.0,117.4) scale(4.50)' color='rgb(230, 159,   0)'/>
	<use xlink:href='#gpPt3' transform='translate(384.5,114.9) scale(4.50)' color='rgb(230, 159,   0)'/>
	<use xlink:href='#gpPt3' transform='translate(387.0,112.5) scale(4.50)' color='rgb(230, 159,   0)'/>
	<use xlink:href='#gpPt3' transform='translate(389.5,110.1) scale(4.50)' color='rgb(230, 159,   0)'/>
	<use xlink:href='#gpPt3' transform='translate(391.9,107.8) scale(4.50)' color='rgb(230, 159,   0)'/>
	<use xlink:href='#gpPt3' transform='translate(394.4,105.6) scale(4.50)' color='rgb(230, 159,   0)'/>
	<use xlink:href='#gpPt3' transform='translate(396.9,103.5) scale(4.50)' color='rgb(230, 159,   0)'/>
	<use xlink:href='#gpPt3' transform='translate(399.3,101.5) scale(4.50)' color='rgb(230, 159,   0)'/>
	<use xlink:href='#gpPt3' transform='translate(401.8,99.6) scale(4.50)' color='rgb(230, 159,   0)'/>
	<use xlink:href='#gpPt3' transform='translate(404.3,97.8) scale(4.50)' color='rgb(230, 159,   0)'/>
	<use xlink:href='#gpPt3' transform='translate(406.8,96.2) scale(4.50)' color='rgb(230, 159,   0)'/>
	<use xlink:href='#gpPt3' transform='translate(409.2,94.8) scale(4.50)' color='rgb(230, 159,   0)'/>
	<use xlink:href='#gpPt3' transform='translate(411.7,93.5) scale(4.50)' color='rgb(230, 159,   0)'/>
	<use xlink:href='#gpPt3' transform='translate(414.2,92.4) scale(4.50)' color='rgb(230, 159,   0)'/>
	<use xlink:href='#gpPt3' transform='translate(416.7,91.6) scale(4.50)' color='rgb(230, 159,   0)'/>
	<use xlink:href='#gpPt3' transform='translate(419.1,90.9) scale(4.50)' color='rgb(230, 159,   0)'/>
	<use xlink:href='#gpPt3' transform='translate(421.6,90.5) scale(4.50)' color='rgb(230, 159,   0)'/>
	<use xlink:href='#gpPt3' transform='translate(424.1,90.3) scale(4.50)' color='rgb(230, 159,   0)'/>
	<use xlink:href='#gpPt3' transform='translate(426.6,90.4) scale(4.50)' color='rgb(230, 159,   0)'/>
	<use xlink:href='#gpPt3' transform='translate(429.0,90.7) scale(4.50)' color='rgb(230, 159,   0)'/>
	<use xlink:href='#gpPt3' transform='translate(431.5,91.3) scale(4.50)' color='rgb(230, 159,   0)'/>
	<use xlink:href='#gpPt3' transform='translate(434.0,92.1) scale(4.50)' color='rgb(230, 159,   0)'/>
	<use xlink:href='#gpPt3' transform='translate(436.5,93.2) scale(4.50)' color='rgb(230, 159,   0)'/>
	<use xlink:href='#gpPt3' transform='translate(438.9,94.6) scale(4.50)' color='rgb(230, 159,   0)'/>
	<use xlink:href='#gpPt3' transform='translate(441.4,96.3) scale(4.50)' color='rgb(230, 159,   0)'/>
	<use xlink:href='#gpPt3' transform='translate(443.9,98.3) scale(4.50)' color='rgb(230, 159,   0)'/>
	<use xlink:href='#gpPt3' transform='translate(446.4,100.5) scale(4.50)' color='rgb(230, 159,   0)'/>
	<use xlink:href='#gpPt3' transform='translate(448.8,103.1) scale(4.50)' color='rgb(230, 159,   0)'/>
	<use xlink:href='#gpPt3' transform='translate(451.3,105.9) scale(4.50)' color='rgb(230, 159,   0)'/>
	<use xlink:href='#gpPt3' transform='translate(453.8,109.0) scale(4.50)' color='rgb(230, 159,   0)'/>
	<use xlink:href='#gpPt3' transform='translate(456.2,112.4) scale(4.50)' color='rgb(230, 159,   0)'/>
	<use xlink:href='#gpPt3' transform='translate(458.7,116.2) scale(4.50)' color='rgb(230, 159,   0)'/>
	<use xlink:href='#gpPt3' transform='translate(461.2,120.1) scale(4.50)' color='rgb(230, 159,   0)'/>
	<use xlink:href='#gpPt3' transform='translate(463.7,124.4) scale(4.50)' color='rgb(230, 159,   0)'/>
	<use xlink:href='#gpPt3' transform='translate(466.1,128.9) scale(4.50)' color='rgb(230, 159,   0)'/>
	<use xlink:href='#gpPt3' transform='translate(468.6,133.8) scale(4.50)' color='rgb(230, 159,   0)'/>
	<use xlink:href='#gpPt3' transform='translate(471.1,138.8) scale(4.50)' color='rgb(230, 159,   0)'/>
	<use xlink:href='#gpPt3' transform='translate(473.6,144.1) scale(4.50)' color='rgb(230, 159,   0)'/>
	<use xlink:href='#gpPt3' transform='translate(476.0,149.7) scale(4.50)' color='rgb(230, 159,   0)'/>
	<use xlink:href='#gpPt3' transform='translate(478.5,155.5) scale(4.50)' color='rgb(230, 159,   0)'/>
	<use xlink:href='#gpPt3' transform='translate(481.0,161.5) scale(4.50)' color='rgb(230, 159,   0)'/>
	<use xlink:href='#gpPt3' transform='translate(483.5,167.8) scale(4.50)' color='rgb(230, 159,   0)'/>
	<use xlink:href='#gpPt3' transform='translate(485.9,174.2) scale(4.50)' color='rgb(230, 159,   0)'/>
	<use xlink:href='#gpPt3' transform='translate(488.4,180.8) scale(4.50)' color='rgb(230, 159,   0)'/>
	<use xlink:href='#gpPt3' transform='translate(490.9,187.7) scale(4.50)' color='rgb(230, 159,   0)'/>
	<use xlink:href='#gpPt3' transform='translate(493.4,194.6) scale(4.50)' color='rgb(230, 159,   0)'/>
	<use xlink:href='#gpPt3' transform='translate(495.8,201.8) scale(4.50)' color='rgb(230, 159,   0)'/>
	<use xlink:href='#gpPt3' transform='translate(498.3,209.0) scale(4.50)' color='rgb(230, 159,   0)'/>
	<use xlink:href='#gpPt3' transform='translate(500.8,216.4) scale(4.50)' color='rgb(230, 159,   0)'/>
	<use xlink:href='#gpPt3' transform='translate(503.3,223.9) scale(4.50)' color='rgb(230, 159,   0)'/>
	<use xlink:href='#gpPt3' transform='translate(505.7,231.5) scale(4.50)' color='rgb(230, 159,   0)'/>
	<use xlink:href='#gpPt3' transform='translate(508.2,239.1) scale(4.50)' color='rgb(230, 159,   0)'/>
	<use xlink:href='#gpPt3' transform='translate(510.7,246.9) scale(4.50)' color='rgb(230, 159,   0)'/>
	<use xlink:href='#gpPt3' transform='translate(513.2,254.6) scale(4.50)' color='rgb(230, 159,   0)'/>
	<use xlink:href='#gpPt3' transform='translate(515.6,262.4) scale(4.50)' color='rgb(230, 159,   0)'/>
	<use xlink:href='#gpPt3' transform='translate(518.1,270.3) scale(4.50)' color='rgb(230, 159,   0)'/>
	<use xlink:href='#gpPt3' transform='translate(520.6,278.1) scale(4.50)' color='rgb(230, 159,   0)'/>
	<use xlink:href='#gpPt3' transform='translate(523.0,285.9) scale(4.50)' color='rgb(230, 159,   0)'/>
	<use xlink:href='#gpPt3' transform='translate(525.5,293.7) scale(4.50)' color='rgb(230, 159,   0)'/>
	<use xlink:href='#gpPt3' transform='translate(528.0,301.4) scale(4.50)' color='rgb(230, 159,   0)'/>
	<use xlink:href='#gpPt3' transform='translate(530.5,309.1) scale(4.50)' color='rgb(230, 159,   0)'/>
	<use xlink:href='#gpPt3' transform='translate(532.9,316.7) scale(4.50)' color='rgb(230, 159,   0)'/>
	<use xlink:href='#gpPt3' transform='translate(535.4,324.2) scale(4.50)' color='rgb(230, 159,   0)'/>
	<use xlink:href='#gpPt3' transform='translate(537.9,331.6) scale(4.50)' color='rgb(230, 159,   0)'/>
	<use xlink:href='#gpPt3' transform='translate(540.4,338.9) scale(4.50)' color='rgb(230, 159,   0)'/>
	<use xlink:href='#gpPt3' transform='translate(542.8,346.0) scale(4.50)' color='rgb(230, 159,   0)'/>
	<use xlink:href='#gpPt3' transform='translate(545.3,353.0) scale(4.50)' color='rgb(230, 159,   0)'/>
	<use xlink:href='#gpPt3' transform='translate(547.8,359.9) scale(4.50)' color='rgb(230, 159,   0)'/>
	<use xlink:href='#gpPt3' transform='translate(550.3,366.6) scale(4.50)' color='rgb(230, 159,   0)'/>
	<use xlink:href='#gpPt3' transform='translate(552.7,373.1) scale(4.50)' color='rgb(230, 159,   0)'/>
	<use xlink:href='#gpPt3' transform='translate(555.2,379.4) scale(4.50)' color='rgb(230, 159,   0)'/>
	<use xlink:href='#gpPt3' transform='translate(557.7,385.6) scale(4.50)' color='rgb(230, 159,   0)'/>
	<use xlink:href='#gpPt3' transform='translate(560.2,391.5) scale(4.50)' color='rgb(230, 159,   0)'/>
	<use xlink:href='#gpPt3' transform='translate(562.6,397.2) scale(4.50)' color='rgb(230, 159,   0)'/>
	<use xlink:href='#gpPt3' transform='translate(565.1,402.7) scale(4.50)' color='rgb(230, 159,   0)'/>
	<use xlink:href='#gpPt3' transform='translate(567.6,408.0) scale(4.50)' color='rgb(230, 159,   0)'/>
	<use xlink:href='#gpPt3' transform='translate(570.1,413.1) scale(4.50)' color='rgb(230, 159,   0)'/>
	<use xlink:href='#gpPt3' transform='translate(572.5,417.8) scale(4.50)' color='rgb(230, 159,   0)'/>
	<use xlink:href='#gpPt3' transform='translate(537.3,126.1) scale(4.50)' color='rgb(230, 159,   0)'/>
</g>
	</g>
<g fill="none" color="white" stroke="rgb(230, 159,   0)" stroke-width="2.00" stroke-linecap="butt" stroke-linejoin="miter">
</g>
<g fill="none" color="black" stroke="currentColor" stroke-width="2.00" stroke-linecap="butt" stroke-linejoin="miter">
</g>
<g fill="none" color="black" stroke="black" stroke-width="1.00" stroke-linecap="butt" stroke-linejoin="miter">
</g>
<g fill="none" color="black" stroke="currentColor" stroke-width="1.00" stroke-linecap="butt" stroke-linejoin="miter">
	<path stroke='black'  d='M80.2,54.1 L80.2,422.4 L575.0,422.4 L575.0,54.1 L80.2,54.1 Z  '/></g>
<g fill="none" color="black" stroke="currentColor" stroke-width="1.00" stroke-linecap="butt" stroke-linejoin="miter">
</g>
</g>
</svg>

