

Fitted values (log(act) and log(decay)): 4.95866865452411	0.171379430616684
The estimated activity is: 142.404080608249 +/- 1.03028712237561
Decay rate is: 0.171379430616684 +/- 0.00353553390593274
Meaning that the esimated half life is: 4.04451793348687 days +/- 0.0834378445274388 days
Wikipedia says it should be: 3.6319 days


See figure 'plot.svg' for least squares fit with uncertainties.

For bonus here is the covariance matrix:

   0.00089   8.75e-05 
  8.75e-05   1.25e-05 
