0	1	-1E-05
0.0347941848259414	0.999999652128357	-9.99394682351214E-06
0.0683334801885502	0.999999317196922	-9.97666062402668E-06
0.101441930908659	0.999998987319725	-9.94859014647444E-06
0.134426692000049	0.999998659778256	-9.90978118110334E-06
0.167410414275124	0.999998333705084	-9.86019314072097E-06
0.200448079303924	0.999998008915955	-9.79977152407424E-06
0.233569742031436	0.999997685482729	-9.72846017494233E-06
0.266796433382322	0.999997363575292	-9.64620040108657E-06
0.300146144845483	0.999997043403045	-9.55292842827547E-06
0.333636125042367	0.999996725193493	-9.4485733830203E-06
0.367283806214423	0.999996409184711	-9.33305585105148E-06
0.401107226957262	0.999996095623016	-9.20628673341212E-06
0.435125276392052	0.999995784762628	-9.06816617621988E-06
0.469357883328403	0.999995476866148	-8.91858243316585E-06
0.503826199076962	0.999995172205391	-8.7574105713387E-06
0.538552795242089	0.999994871062462	-8.58451095359609E-06
0.573561888389541	0.999994573731016	-8.39972743524783E-06
0.608879601105231	0.999994280517732	-8.20288520542898E-06
0.644534269358209	0.99999399174401	-7.99378818869773E-06
0.680556808188503	0.999993707747967	-7.77221589907033E-06
0.716981151088195	0.999993428886778	-7.53791960594389E-06
0.753844783157808	0.999993155539451	-7.29061762652367E-06
0.791189394780091	0.999992888110163	-7.02998949660082E-06
0.829061692157083	0.999992627032286	-6.75566868153499E-06
0.867403228029479	0.999992373492439	-6.46808137385154E-06
0.905609642193501	0.999992131996686	-6.17204993057658E-06
0.943477736389471	0.999991903970107	-5.86974951190485E-06
0.980959887847826	0.999991689697886	-5.56224070836665E-06
1.01806535456231	0.999991489076585	-5.25012473842841E-06
1.05482227786918	0.99999130189104	-4.93381317630724E-06
1.09126353880238	0.999991127911855	-4.61363730546279E-06
1.1274217563469	0.999990966927062	-4.28989234198334E-06
1.16332771847574	0.999990818750339	-3.96285551297959E-06
1.19901006273672	0.99999068322129	-3.63279370931371E-06
1.23449538457116	0.999990560203372	-3.29996698100678E-06
1.26980847182236	0.99999044958135	-2.964630348015E-06
1.30497255536262	0.999990351258932	-2.6270349371448E-06
1.3400095431402	0.999990265156724	-2.28742881981274E-06
1.3749402287747	0.999990191210514	-1.94605771440625E-06
1.40978447594106	0.999990129369851	-1.60316561423143E-06
1.44456138186056	0.999990079596883	-1.25899537100491E-06
1.47928942290999	0.999990041865415	-9.13789256806969E-07
1.51398658543325	0.999990016160147	-5.67789518376487E-07
1.54867048802297	0.999990002476084	-2.21238898966797E-07
1.58335849297902	0.999990000818086	1.25618816754062E-07
1.61806781374525	0.999990011200546	4.72538273424883E-07
1.65281561753679	0.999990033647197	8.19271996850996E-07
1.68761912627332	0.999990068191024	1.1655698329274E-06
1.72249571765883	0.999990114874295	1.51117836739658E-06
1.75746302673957	0.999990173748702	1.85584030500528E-06
1.79253905297039	0.999990244875612	2.19929383216417E-06
1.82774227042461	0.999990328326439	2.54127191191205E-06
1.86309174766326	0.999990424183155	2.88150154482237E-06
1.8986072752081	0.99999053253893	3.21970294124578E-06
1.93430950835104	0.999990653498942	3.55558864007351E-06
1.97022012213743	0.999990787181363	3.88886249736189E-06
2.00636198961352	0.999990933718569	4.21921859511346E-06
2.04275938159325	0.999991093258584	4.54633998682688E-06
2.07943819722776	0.999991265966838	4.86989728580929E-06
2.11642623208269	0.999991452028276	5.18954705708936E-06
2.15375349167788	0.99999165164991	5.50492996041396E-06
2.19145256176277	0.999991865063913	5.81566858866192E-06
2.2295590525645	0.99999209253139	6.12136495221799E-06
2.26811213297885	0.999992334346996	6.42159749034471E-06
2.30715518354358	0.999992590844661	6.71591751792721E-06
2.34673660174795	0.99999286240471	7.00384494222179E-06
2.3869108064548	0.999993149462843	7.28486303678456E-06
2.42773951068741	0.99999345252159	7.55841201167644E-06
2.46865963795515	0.999993767208191	7.81993277313659E-06
2.50929188291831	0.999994090007289	8.06666013732032E-06
2.54952717441632	0.99999441926792	8.29785678578874E-06
2.58935778427367	0.999994754116079	8.51349979176347E-06
2.62881118775647	0.999995093998278	8.71378813970862E-06
2.66792512067173	0.999995438494742	8.89896662129898E-06
2.70673857986983	0.999995787243615	9.06926688807015E-06
2.74528885305277	0.999996139910072	9.22489054681955E-06
2.78361076774131	0.999996496173418	9.36600668229979E-06
2.82173671761722	0.99999685572137	9.49275387786692E-06
2.85969693128273	0.999997218247212	9.6052432773277E-06
2.89751979170618	0.999997583448111	9.70356155830416E-06
2.93523214269756	0.999997951023924	9.78777350269771E-06
2.97285956546201	0.999998320676204	9.85792412180489E-06
3.01042662436366	0.999998692107314	9.91404037387939E-06
3.04795708606623	0.999999065019586	9.95613252787041E-06
3.08547411725153	0.999999439114501	9.98419522262311E-06
3.12300046592214	0.999999814091883	9.99820826148962E-06
3.16055863072464	1.00000018964907	9.998137172641E-06
3.19817102407453	1.00000056548013	9.98393355592967E-06
3.23586012798556	1.00000094127493	9.95553523040289E-06
3.27364864786487	1.00000131671828	9.91286619539604E-06
3.31155967167957	1.00000169148894	9.85583640251661E-06
3.34961683404847	1.00000206525863	9.78434133388107E-06
3.38784448921811	1.00000243769092	9.69826137671448E-06
3.42626789679452	1.00000280844003	9.59746097775694E-06
3.46491342469028	1.00000317714948	9.48178755291809E-06
3.50380877434315	1.00000354345066	9.35107011884784E-06
3.54298323414766	1.00000390696113	9.20511760263485E-06
3.58246796860526	1.00000426728275	9.04371677139144E-06
3.62229635209609	1.00000462399954	8.86662970731486E-06
3.66250435894605	1.00000497667522	8.67359072970984E-06
3.7031310242145	1.00000532485029	8.46430263700741E-06
3.74421899436985	1.00000566803868	8.23843209964433E-06
3.78581519263509	1.00000600572377	7.9956039807942E-06
3.82797163235459	1.00000633735355	7.73539428370402E-06
3.87074642328145	1.00000666233485	7.45732131668674E-06
3.91420503277159	1.00000698002624	7.16083450920538E-06
3.95842188850675	1.00000728972922	6.84530008389831E-06
4.00348244653585	1.00000759067715	6.5099824447122E-06
4.04876802667339	1.00000787760129	6.15967643554933E-06
4.09379175803669	1.00000814685473	5.79887400941188E-06
4.13841467314647	1.00000839742049	5.42968487622182E-06
4.18262845544592	1.00000862920129	5.05321698915215E-06
4.2264700623437	1.00000884237844	4.67016377151589E-06
4.26998961127881	1.00000903718419	4.28104638986955E-06
4.31323890487788	1.00000921382667	3.88631255412435E-06
4.35626773284933	1.00000937246893	3.48637701615631E-06
4.399123021922	1.00000951322627	3.0816385994302E-06
4.44184896752296	1.0000096361689	2.67248790228608E-06
4.48448746951965	1.00000974132578	2.2593112448675E-06
4.52707862326042	1.00000982868794	1.84249317539165E-06
4.56966119653774	1.00000989821127	1.42241836221011E-06
4.61227307075606	1.0000099498184	9.99473277974953E-07
4.65495164943184	1.00000998339994	5.74047832037714E-07
4.69773424735574	1.00000999881515	1.46536987269897E-07
4.74065846504444	1.00000999589185	-2.82657530365376E-07
4.78376256424912	1.00000997442592	-7.13125439051523E-07
4.82708585159277	1.00000993418011	-1.14444594788084E-06
4.87066908579251	1.00000987488227	-1.5761856408188E-06
4.91455491690263	1.00000979622291	-2.00789610771841E-06
4.95878837355262	1.00000969785205	-2.43911127996387E-06
5.00341741509571	1.00000957937513	-2.86934439683053E-06
5.04849356800007	1.00000944034795	-3.2980844959903E-06
5.0940726721667	1.00000928027032	-3.72479230597906E-06
5.14021577247488	1.00000909857813	-4.14889540269836E-06
5.18699019370724	1.00000889463357	-4.56978237165333E-06
5.23447086654193	1.00000866771266	-4.98679578493073E-06
5.28274197216721	1.00000841698968	-5.39922350708573E-06
5.33189902665852	1.00000814151717	-5.80628790855875E-06
5.38205155745623	1.00000784020013	-6.20713221793514E-06
5.4333265959265	1.0000075117622	-6.60080294922659E-06
5.48587332924665	1.0000071547006	-6.9862269335859E-06
5.53986941312389	1.00000676722497	-7.36218057856905E-06
5.59552975451913	1.00000634717239	-7.72724785214252E-06
5.65191864026194	1.00000590158134	-8.07268296637582E-06
5.70844903864968	1.00000543604262	-8.39322514081569E-06
5.76501910575238	1.00000495279241	-8.68714853418194E-06
5.82171690112108	1.00000445255341	-8.95384746550604E-06
5.8787098684333	1.00000393529195	-9.19293238093619E-06
5.93621076965137	1.00000340047561	-9.40389297669187E-06
5.99447670808313	1.00000284708682	-9.58595004204971E-06
6.05382772115508	1.0000022734705	-9.73794486452283E-06
6.11468758278068	1.00000167697599	-9.85818825217142E-06
6.17766788549075	1.00000105318889	-9.94418354316688E-06
6.24376610778422	1.00000039407397	-9.99202382143518E-06
6.28318530717959	0.999999999992226	-9.99979070941192E-06
